﻿
DisplayName "Pocket Castle Indoor Beach"



EVENT   2
 PAGE   1
  0()



EVENT   3
 PAGE   1
  0()



EVENT   1
 PAGE   1
  281(0)
  250(bytes(0x04,0x08,0x6f,0x3a,0x0c,0x52,0x50,0x47,0x3a,0x3a,0x53,0x45,0x08,0x3a,0x0a,0x40,0x6e,0x61,0x6d,0x65,0x49,0x22,0x09,0x4d,0x6f,0x76,0x65,0x06,0x3a,0x06,0x45,0x54,0x3a,0x0b,0x40,0x70,0x69,0x74,0x63,0x68,0x69,0x69,0x3a,0x0c,0x40,0x76,0x6f,0x6c,0x75,0x6d,0x65,0x69,0x55))
  TeleportPlayer(0,229,4,11,0,0)
  0()



EVENT   4
 PAGE   1
  281(0)
  250(bytes(0x04,0x08,0x6f,0x3a,0x0c,0x52,0x50,0x47,0x3a,0x3a,0x53,0x45,0x08,0x3a,0x0a,0x40,0x6e,0x61,0x6d,0x65,0x49,0x22,0x09,0x4d,0x6f,0x76,0x65,0x06,0x3a,0x06,0x45,0x54,0x3a,0x0b,0x40,0x70,0x69,0x74,0x63,0x68,0x69,0x69,0x3a,0x0c,0x40,0x76,0x6f,0x6c,0x75,0x6d,0x65,0x69,0x55))
  TeleportPlayer(0,229,4,11,0,0)
  0()



EVENT   6
 PAGE   1
  RunCommonEvent(111)
  0()



EVENT   9
 PAGE   1
  // condition: switch 1098 is ON
  PictureDisplay(5,"80_minikani_st01",0,0,0,0,100,100,0,0)
  PictureMove(5,null,0,0,0,0,100,100,255,0,30,true)
  If(1,3098,0,10,1)
   If(1,4098,0,0,0)
    ChangeVariable(4098,4098,0,0,1)
    ShowMessageFace("minikani_fc1",0,0,2,1)
    ShowMessage("\\n<Amy (Affection:\\V[3098])>これ、あげるー♪ 大切にしてよね♪")
    250(bytes(0x04,0x08,0x6f,0x3a,0x0c,0x52,0x50,0x47,0x3a,0x3a,0x53,0x45,0x08,0x3a,0x0a,0x40,0x6e,0x61,0x6d,0x65,0x49,0x22,0x0a,0x49,0x74,0x65,0x6d,0x31,0x06,0x3a,0x06,0x45,0x54,0x3a,0x0b,0x40,0x70,0x69,0x74,0x63,0x68,0x69,0x69,0x3a,0x0c,0x40,0x76,0x6f,0x6c,0x75,0x6d,0x65,0x69,0x55))
    ChangeInventoryArmor(106,0,0,1,false)
    0()
   EndIf()
   0()
  EndIf()
  If(1,3098,0,100,1)
   If(1,4098,0,1,0)
    ChangeVariable(4098,4098,0,0,2)
    ShowMessageFace("minikani_fc1",0,0,2,2)
    ShowMessage("\\n<Amy (Affection:\\V[3098])>これ、あげるー♪ 大切にしてよね♪")
    250(bytes(0x04,0x08,0x6f,0x3a,0x0c,0x52,0x50,0x47,0x3a,0x3a,0x53,0x45,0x08,0x3a,0x0a,0x40,0x6e,0x61,0x6d,0x65,0x49,0x22,0x0a,0x49,0x74,0x65,0x6d,0x31,0x06,0x3a,0x06,0x45,0x54,0x3a,0x0b,0x40,0x70,0x69,0x74,0x63,0x68,0x69,0x69,0x3a,0x0c,0x40,0x76,0x6f,0x6c,0x75,0x6d,0x65,0x69,0x55))
    ChangeInventoryArmor(1730,0,0,1,false)
    0()
   EndIf()
   0()
  EndIf()
  If(1,3098,0,500,1)
   If(1,4098,0,2,0)
    ChangeVariable(4098,4098,0,0,3)
    ShowMessageFace("minikani_fc1",0,0,2,3)
    ShowMessage("\\n<Amy (Affection:\\V[3098])>これ、あげるー♪ 大切にしてよね♪")
    250(bytes(0x04,0x08,0x6f,0x3a,0x0c,0x52,0x50,0x47,0x3a,0x3a,0x53,0x45,0x08,0x3a,0x0a,0x40,0x6e,0x61,0x6d,0x65,0x49,0x22,0x0a,0x49,0x74,0x65,0x6d,0x31,0x06,0x3a,0x06,0x45,0x54,0x3a,0x0b,0x40,0x70,0x69,0x74,0x63,0x68,0x69,0x69,0x3a,0x0c,0x40,0x76,0x6f,0x6c,0x75,0x6d,0x65,0x69,0x55))
    ChangeInventoryArmor(1022,0,0,1,false)
    0()
   EndIf()
   0()
  EndIf()
  If(1,3098,0,2000,1)
   If(1,4098,0,3,0)
    ChangeVariable(4098,4098,0,0,4)
    ShowMessageFace("minikani_fc1",0,0,2,4)
    ShowMessage("\\n<Amy (Affection:\\V[3098])>これ、あげるー♪ 大切にしてよね♪")
    250(bytes(0x04,0x08,0x6f,0x3a,0x0c,0x52,0x50,0x47,0x3a,0x3a,0x53,0x45,0x08,0x3a,0x0a,0x40,0x6e,0x61,0x6d,0x65,0x49,0x22,0x0a,0x49,0x74,0x65,0x6d,0x31,0x06,0x3a,0x06,0x45,0x54,0x3a,0x0b,0x40,0x70,0x69,0x74,0x63,0x68,0x69,0x69,0x3a,0x0c,0x40,0x76,0x6f,0x6c,0x75,0x6d,0x65,0x69,0x55))
    ChangeInventoryArmor(1470,0,0,1,false)
    0()
   EndIf()
   0()
  EndIf()
  355("actor_label_jump")
  ShowMessageFace("minikani_fc1",0,0,2,5)
  ShowMessage("\\n<Amy (Affection:\\V[3098])>かにかにかに～♪ あれ？　私に用事？")
  JumpToLabel("メニュー")
  DefineLabel("76")
  ShowMessageFace("syuree_fc1",0,0,2,6)
  ShowMessage("\\n<Sully (Affection:\\V[3076])>わっ、カニだ～！")
  ShowMessageFace("minikani_fc1",0,0,2,7)
  ShowMessage("\\n<Amy (Affection:\\V[3098])>エビだ～！")
  ShowMessageFace("syuree_fc1",1,0,2,8)
  ShowMessage("\\n<Sully (Affection:\\V[3076])>あわあわあわ……")
  ShowMessageFace("minikani_fc1",0,0,2,9)
  ShowMessage("\\n<Amy (Affection:\\V[3098])>すごい！ エビなのに、アワが出せるの！？")
  ShowMessageFace("syuree_fc1",1,0,2,10)
  ShowMessage("\\n<Sully (Affection:\\V[3076])>えへへっ！　あわあわあわ……")
  ShowMessageFace("minikani_fc1",0,0,2,11)
  ShowMessage("\\n<Amy (Affection:\\V[3098])>あわあわあわ……")
  JumpToLabel("メニュー")
  DefineLabel("109")
  ShowMessageFace("minikani_fc1",0,0,2,12)
  ShowMessage("\\n<Amy (Affection:\\V[3098])>おか～さ～ん！")
  ShowMessageFace("kani_fc1",2,0,2,13)
  ShowMessage("\\n<Soapy (Affection:\\V[3109])>お母さんじゃないって言ってるでしょ！ あたし、まだ未婚よ！")
  ShowMessageFace("minikani_fc1",2,0,2,14)
  ShowMessage("\\n<Amy (Affection:\\V[3098])>……びえ～！")
  ShowMessageFace("kani_fc1",2,0,2,15)
  ShowMessage("\\n<Soapy (Affection:\\V[3109])>ご、ごめんなさい…… ああもう、この子の母親はどこにいるのよ！？")
  JumpToLabel("メニュー")
  DefineLabel("128")
  ShowMessageFace("minikani_fc1",0,0,2,16)
  ShowMessage("\\n<Amy (Affection:\\V[3098])>ねぇねぇ、なんでロボットの体になったの？")
  ShowMessageFace("kaniloid_fc1",0,0,2,17)
  ShowMessage("\\n<Jillian (Affection:\\V[3128])>それは、悪行を重ねたからだ。 悪いことをすると、メカに改造されるのだぞ……")
  ShowMessageFace("minikani_fc1",2,0,2,18)
  ShowMessage("\\n<Amy (Affection:\\V[3098])>こわいよ～！")
  ShowMessageFace("minikani_fc1",0,0,2,19)
  ShowMessage("\\n<Amy (Affection:\\V[3098])>……でも、かっこいい！")
  ShowMessageFace("kaniloid_fc1",0,0,2,20)
  ShowMessage("\\n<Jillian (Affection:\\V[3128])>そ、そうか……")
  JumpToLabel("メニュー")
  DefineLabel("メニュー")
  StartLoop()
   355("unlimited_choices(11, [\"Give presents\",")
   655("\"Add to party\",")
   655("\"View present list\",\"Request\",")
   655("\"Never mind\"])")
   If(1,11,0,0,0)
    355("present_start(98)")
    0()
   EndIf()
   If(1,11,0,1,0)
    PictureClear(5)
    355("move_actor_ex(98)")
    EndEventProcessing()
    0()
   EndIf()
   If(1,11,0,2,0)
    ShowMessageFace("",0,0,2,21)
    ShowMessage("Affection   10:金の甲羅")
    ShowMessage("Affection  100:修行リスト")
    ShowMessage("Affection  500:ミスリルの小手")
    ShowMessage("Affection 2000:ヌルヌルの印")
    0()
   EndIf()
   If(1,11,0,3,0)
    PictureClear(5)
    ShowMessageFace("",0,0,2,22)
    ShowMessage("Ask her for what? (Affection:\\V[3098])")
    ShowChoices(strings("Mini Melty Wash(Affection:10)","Never mind"),2)
    IfPlayerPicksChoice(0,null)
     If(1,3098,0,10,1)
      355("call_novel_scene(4281)")
      EndEventProcessing()
      0()
     Else()
      ShowMessageFace("minikani_fc1",0,0,2,23)
      ShowMessage("\\n<Amy (Affection:\\V[3098])>今日はもう、洗い疲れたから……")
      0()
     EndIf()
     0()
    IfPlayerPicksChoice(1,null)
     0()
    404()
    0()
   EndIf()
   If(1,11,0,4,1)
    PictureClear(5)
    EndEventProcessing()
    0()
   EndIf()
   0()
  EndLoop()
  0()
 PAGE   2
  // condition: party contains actor #98
  0()



EVENT   11
 PAGE   1
  // condition: switch 1109 is ON
  PictureDisplay(5,"80_kani_st01",0,0,0,0,100,100,0,0)
  PictureMove(5,null,0,0,0,0,100,100,255,0,30,true)
  If(1,3109,0,10,1)
   If(1,4109,0,0,0)
    ChangeVariable(4109,4109,0,0,1)
    ShowMessageFace("kani_fc1",0,0,2,1)
    ShowMessage("\\n<Soapy (Affection:\\V[3109])>これ、あんたにあげる。 高かったんだから、大切にしてよね。")
    250(bytes(0x04,0x08,0x6f,0x3a,0x0c,0x52,0x50,0x47,0x3a,0x3a,0x53,0x45,0x08,0x3a,0x0a,0x40,0x6e,0x61,0x6d,0x65,0x49,0x22,0x0a,0x49,0x74,0x65,0x6d,0x31,0x06,0x3a,0x06,0x45,0x54,0x3a,0x0b,0x40,0x70,0x69,0x74,0x63,0x68,0x69,0x69,0x3a,0x0c,0x40,0x76,0x6f,0x6c,0x75,0x6d,0x65,0x69,0x55))
    ChangeInventoryArmor(107,0,0,1,false)
    0()
   EndIf()
   0()
  EndIf()
  If(1,3109,0,100,1)
   If(1,4109,0,1,0)
    ChangeVariable(4109,4109,0,0,2)
    ShowMessageFace("kani_fc1",0,0,2,2)
    ShowMessage("\\n<Soapy (Affection:\\V[3109])>これ、あんたにあげる。 高かったんだから、大切にしてよね。")
    250(bytes(0x04,0x08,0x6f,0x3a,0x0c,0x52,0x50,0x47,0x3a,0x3a,0x53,0x45,0x08,0x3a,0x0a,0x40,0x6e,0x61,0x6d,0x65,0x49,0x22,0x0a,0x49,0x74,0x65,0x6d,0x31,0x06,0x3a,0x06,0x45,0x54,0x3a,0x0b,0x40,0x70,0x69,0x74,0x63,0x68,0x69,0x69,0x3a,0x0c,0x40,0x76,0x6f,0x6c,0x75,0x6d,0x65,0x69,0x55))
    ChangeInventoryArmor(1145,0,0,1,false)
    0()
   EndIf()
   0()
  EndIf()
  If(1,3109,0,500,1)
   If(1,4109,0,2,0)
    ChangeVariable(4109,4109,0,0,3)
    ShowMessageFace("kani_fc1",0,0,2,3)
    ShowMessage("\\n<Soapy (Affection:\\V[3109])>これ、あんたにあげる。 高かったんだから、大切にしてよね。")
    250(bytes(0x04,0x08,0x6f,0x3a,0x0c,0x52,0x50,0x47,0x3a,0x3a,0x53,0x45,0x08,0x3a,0x0a,0x40,0x6e,0x61,0x6d,0x65,0x49,0x22,0x0a,0x49,0x74,0x65,0x6d,0x31,0x06,0x3a,0x06,0x45,0x54,0x3a,0x0b,0x40,0x70,0x69,0x74,0x63,0x68,0x69,0x69,0x3a,0x0c,0x40,0x76,0x6f,0x6c,0x75,0x6d,0x65,0x69,0x55))
    ChangeInventoryArmor(1580,0,0,1,false)
    0()
   EndIf()
   0()
  EndIf()
  If(1,3109,0,2000,1)
   If(1,4109,0,3,0)
    ChangeVariable(4109,4109,0,0,4)
    ShowMessageFace("kani_fc1",0,0,2,4)
    ShowMessage("\\n<Soapy (Affection:\\V[3109])>これ、あんたにあげる。 高かったんだから、大切にしてよね。")
    250(bytes(0x04,0x08,0x6f,0x3a,0x0c,0x52,0x50,0x47,0x3a,0x3a,0x53,0x45,0x08,0x3a,0x0a,0x40,0x6e,0x61,0x6d,0x65,0x49,0x22,0x0a,0x49,0x74,0x65,0x6d,0x31,0x06,0x3a,0x06,0x45,0x54,0x3a,0x0b,0x40,0x70,0x69,0x74,0x63,0x68,0x69,0x69,0x3a,0x0c,0x40,0x76,0x6f,0x6c,0x75,0x6d,0x65,0x69,0x55))
    ChangeInventoryArmor(1207,0,0,1,false)
    0()
   EndIf()
   0()
  EndIf()
  355("actor_label_jump")
  ShowMessageFace("kani_fc1",0,0,2,5)
  ShowMessage("\\n<Soapy (Affection:\\V[3109])>いっちに、いっちに！　足腰の鍛錬～♪ ……どうしたの、何か用事？")
  JumpToLabel("メニュー")
  DefineLabel("64")
  ShowMessageFace("pramia_fc1",0,0,2,6)
  ShowMessage("\\n<Teeny (Affection:\\V[3064])>洗い物、手伝ってもらってごめんねー。")
  ShowMessageFace("kani_fc1",0,0,2,7)
  ShowMessage("\\n<Soapy (Affection:\\V[3109])>いいよ、あたし洗うの好きだし。")
  ShowMessageFace("pramia_fc1",0,0,2,8)
  ShowMessage("\\n<Teeny (Affection:\\V[3064])>ひょっとして、洗剤じゃなく自前の泡を…… ……まあいいか。")
  ShowMessageFace("kani_fc1",0,0,2,9)
  ShowMessage("\\n<Soapy (Affection:\\V[3109])>大丈夫、大丈夫……天然成分100%だし。")
  JumpToLabel("メニュー")
  DefineLabel("98")
  ShowMessageFace("minikani_fc1",0,0,2,10)
  ShowMessage("\\n<Amy (Affection:\\V[3098])>おか～さ～ん！")
  ShowMessageFace("kani_fc1",2,0,2,11)
  ShowMessage("\\n<Soapy (Affection:\\V[3109])>お母さんじゃないって言ってるでしょ！ あたし、まだ未婚よ！")
  ShowMessageFace("minikani_fc1",2,0,2,12)
  ShowMessage("\\n<Amy (Affection:\\V[3098])>……びえ～！")
  ShowMessageFace("kani_fc1",2,0,2,13)
  ShowMessage("\\n<Soapy (Affection:\\V[3109])>ご、ごめんなさい…… ああもう、この子の母親はどこにいるのよ！？")
  JumpToLabel("メニュー")
  DefineLabel("128")
  ShowMessageFace("kani_fc1",0,0,2,14)
  ShowMessage("\\n<Soapy (Affection:\\V[3109])>メカニック！")
  ShowMessageFace("kaniloid_fc1",0,0,2,15)
  ShowMessage("\\n<Jillian (Affection:\\V[3128])>そうだが……それがどうした？")
  ShowMessageFace("kani_fc1",0,0,2,16)
  ShowMessage("\\n<Soapy (Affection:\\V[3109])>メ「カニ」ック！")
  ShowMessageFace("kaniloid_fc1",0,0,2,17)
  ShowMessage("\\n<Jillian (Affection:\\V[3128])>ああ、なるほど……出直して来い。")
  JumpToLabel("メニュー")
  DefineLabel("メニュー")
  StartLoop()
   355("unlimited_choices(11, [\"Give presents\",")
   655("\"Add to party\",")
   655("\"View present list\",\"Request\",")
   655("\"Never mind\"])")
   If(1,11,0,0,0)
    355("present_start(109)")
    0()
   EndIf()
   If(1,11,0,1,0)
    PictureClear(5)
    355("move_actor_ex(109)")
    EndEventProcessing()
    0()
   EndIf()
   If(1,11,0,2,0)
    ShowMessageFace("",0,0,2,18)
    ShowMessage("Affection   10:大地の甲羅")
    ShowMessage("Affection  100:派手なマニキュア")
    ShowMessage("Affection  500:ヌルヌルチェック")
    ShowMessage("Affection 2000:水のシンボル")
    0()
   EndIf()
   If(1,11,0,3,0)
    PictureClear(5)
    ShowMessageFace("",0,0,2,19)
    ShowMessage("Ask her for what? (Affection:\\V[3109])")
    ShowChoices(strings("Melty Wash(Affection:10)","Mating(Affection:100)","Never mind"),3)
    IfPlayerPicksChoice(0,null)
     If(1,3109,0,10,1)
      355("call_novel_scene(4336)")
      EndEventProcessing()
      0()
     Else()
      ShowMessageFace("kani_fc1",0,0,2,20)
      ShowMessage("\\n<Soapy (Affection:\\V[3109])>今日は注文が多いから、また今度ね……")
      0()
     EndIf()
     0()
    IfPlayerPicksChoice(1,null)
     If(1,3109,0,100,1)
      355("call_novel_scene(4337)")
      EndEventProcessing()
      0()
     Else()
      ShowMessageFace("kani_fc1",0,0,2,21)
      ShowMessage("\\n<Soapy (Affection:\\V[3109])>今日は注文が多いから、また今度ね……")
      0()
     EndIf()
     0()
    IfPlayerPicksChoice(2,null)
     0()
    404()
    0()
   EndIf()
   If(1,11,0,4,1)
    PictureClear(5)
    EndEventProcessing()
    0()
   EndIf()
   0()
  EndLoop()
  0()
 PAGE   2
  // condition: party contains actor #109
  0()



EVENT   10
 PAGE   1
  // condition: switch 1107 is ON
  PictureDisplay(5,"80_namako_st01",0,0,0,0,100,100,0,0)
  PictureMove(5,null,0,0,0,0,100,100,255,0,30,true)
  If(1,3107,0,10,1)
   If(1,4107,0,0,0)
    ChangeVariable(4107,4107,0,0,1)
    ShowMessageFace("namako_fc1",0,0,2,1)
    ShowMessage("\\n<Yume (Affection:\\V[3107])>砂浜に落ちていたの。 これ、あなたにあげる……")
    250(bytes(0x04,0x08,0x6f,0x3a,0x0c,0x52,0x50,0x47,0x3a,0x3a,0x53,0x45,0x08,0x3a,0x0a,0x40,0x6e,0x61,0x6d,0x65,0x49,0x22,0x0a,0x49,0x74,0x65,0x6d,0x31,0x06,0x3a,0x06,0x45,0x54,0x3a,0x0b,0x40,0x70,0x69,0x74,0x63,0x68,0x69,0x69,0x3a,0x0c,0x40,0x76,0x6f,0x6c,0x75,0x6d,0x65,0x69,0x55))
    ChangeInventory_Item(71,0,0,1)
    0()
   EndIf()
   0()
  EndIf()
  If(1,3107,0,100,1)
   If(1,4107,0,1,0)
    ChangeVariable(4107,4107,0,0,2)
    ShowMessageFace("namako_fc1",0,0,2,2)
    ShowMessage("\\n<Yume (Affection:\\V[3107])>砂浜に落ちていたの。 これ、あなたにあげる……")
    250(bytes(0x04,0x08,0x6f,0x3a,0x0c,0x52,0x50,0x47,0x3a,0x3a,0x53,0x45,0x08,0x3a,0x0a,0x40,0x6e,0x61,0x6d,0x65,0x49,0x22,0x0a,0x49,0x74,0x65,0x6d,0x31,0x06,0x3a,0x06,0x45,0x54,0x3a,0x0b,0x40,0x70,0x69,0x74,0x63,0x68,0x69,0x69,0x3a,0x0c,0x40,0x76,0x6f,0x6c,0x75,0x6d,0x65,0x69,0x55))
    ChangeInventoryArmor(1733,0,0,1,false)
    0()
   EndIf()
   0()
  EndIf()
  If(1,3107,0,500,1)
   If(1,4107,0,2,0)
    ChangeVariable(4107,4107,0,0,3)
    ShowMessageFace("namako_fc1",0,0,2,3)
    ShowMessage("\\n<Yume (Affection:\\V[3107])>砂浜に落ちていたの。 これ、あなたにあげる……")
    250(bytes(0x04,0x08,0x6f,0x3a,0x0c,0x52,0x50,0x47,0x3a,0x3a,0x53,0x45,0x08,0x3a,0x0a,0x40,0x6e,0x61,0x6d,0x65,0x49,0x22,0x0a,0x49,0x74,0x65,0x6d,0x31,0x06,0x3a,0x06,0x45,0x54,0x3a,0x0b,0x40,0x70,0x69,0x74,0x63,0x68,0x69,0x69,0x3a,0x0c,0x40,0x76,0x6f,0x6c,0x75,0x6d,0x65,0x69,0x55))
    ChangeInventoryArmor(1369,0,0,1,false)
    0()
   EndIf()
   0()
  EndIf()
  If(1,3107,0,2000,1)
   If(1,4107,0,3,0)
    ChangeVariable(4107,4107,0,0,4)
    ShowMessageFace("namako_fc1",0,0,2,4)
    ShowMessage("\\n<Yume (Affection:\\V[3107])>砂浜に落ちていたの。 これ、あなたにあげる……")
    250(bytes(0x04,0x08,0x6f,0x3a,0x0c,0x52,0x50,0x47,0x3a,0x3a,0x53,0x45,0x08,0x3a,0x0a,0x40,0x6e,0x61,0x6d,0x65,0x49,0x22,0x0a,0x49,0x74,0x65,0x6d,0x31,0x06,0x3a,0x06,0x45,0x54,0x3a,0x0b,0x40,0x70,0x69,0x74,0x63,0x68,0x69,0x69,0x3a,0x0c,0x40,0x76,0x6f,0x6c,0x75,0x6d,0x65,0x69,0x55))
    ChangeInventoryArmor(1207,0,0,1,false)
    0()
   EndIf()
   0()
  EndIf()
  355("actor_label_jump")
  If(0,1108,0)
   If(4,108,0)
    ShowMessageFace("namako_fc1",0,0,2,5)
    ShowMessage("\\n<Yume (Affection:\\V[3107])>足腰を鍛えておかないと…… いつか必要になる時が来る気がするわ。")
    0()
   EndIf()
   ShowMessageFace("namako_fc1",0,0,2,6)
   ShowMessage("\\n<Yume (Affection:\\V[3107])>こら、待ちなさい……")
   0()
  Else()
   ShowMessageFace("namako_fc1",0,0,2,7)
   ShowMessage("\\n<Yume (Affection:\\V[3107])>足腰を鍛えておかないと…… いつか必要になる時が来る気がするわ。")
   0()
  EndIf()
  JumpToLabel("メニュー")
  DefineLabel("73")
  ShowMessageFace("hiru_fc1",0,0,2,8)
  ShowMessage("\\n<Hiru (Affection:\\V[3073])>私達、どこか似てるわよね……")
  ShowMessageFace("namako_fc1",0,0,2,9)
  ShowMessage("\\n<Yume (Affection:\\V[3107])>ええ、他人に感じられないわ。 海と沼、住む場所は違うけれど……")
  ShowMessageFace("hiru_fc1",0,0,2,10)
  ShowMessage("\\n<Hiru (Affection:\\V[3073])>もう一人どこかで拾って、誓いを交わしましょう。 我ら三人、生まれた時は違えども、死ぬ時は同じ……")
  ShowMessageFace("namako_fc1",0,0,2,11)
  ShowMessage("\\n<Yume (Affection:\\V[3107])>それ、バラバラに死ぬフラグよね。")
  JumpToLabel("メニュー")
  DefineLabel("108")
  ShowMessageFace("namako_fc1",1,0,2,12)
  ShowMessage("\\n<Yume (Affection:\\V[3107])>あっ、貝娘ちゃん♪ ほら、吸わせなさいよ……！")
  ShowMessageFace("kai_fc1",2,0,2,13)
  ShowMessage("\\n<Shelly (Affection:\\V[3108])>きゃ～！　たすけて～！")
  ShowMessageFace("namako_fc1",1,0,2,14)
  ShowMessage("\\n<Yume (Affection:\\V[3107])>あははっ、待て～♪")
  ShowMessageFace("kai_fc1",0,0,2,15)
  ShowMessage("\\n<Shelly (Affection:\\V[3108])>うふふっ……")
  ShowMessageFace("sonia_fc4",0,0,2,16)
  ShowMessage("\\n<Sonya>（なんだか楽しそう……)")
  JumpToLabel("メニュー")
  DefineLabel("116")
  ShowMessageFace("namako_fc1",0,0,2,17)
  ShowMessage("\\n<Yume (Affection:\\V[3107])>相変わらず攻撃的よね、イソギンチャクは…… 平和を愛するナマコみたいに、平穏に生きればいいのに。")
  ShowMessageFace("iso_fc1",0,0,2,18)
  ShowMessage("\\n<Isabelle (Affection:\\V[3116])>私は肉食なの…… あなたの勝手な価値観を押し付けないでくれる？")
  ShowMessageFace("namako_fc1",2,0,2,19)
  ShowMessage("\\n<Yume (Affection:\\V[3107])>そういう価値観を押し付け返してるのは、あなたでしょ？")
  ShowMessageFace("iso_fc1",2,0,2,20)
  ShowMessage("\\n<Isabelle (Affection:\\V[3116])>その価値観の価値観を押し付け返して…… ……なんだか、わけが分からなくなってきたわね。")
  JumpToLabel("メニュー")
  DefineLabel("メニュー")
  StartLoop()
   355("unlimited_choices(11, [\"Give presents\",")
   655("\"Add to party\",")
   655("\"View present list\",\"Request\",")
   655("\"Never mind\"])")
   If(1,11,0,0,0)
    355("present_start(107)")
    0()
   EndIf()
   If(1,11,0,1,0)
    PictureClear(5)
    355("move_actor_ex(107)")
    EndEventProcessing()
    0()
   EndIf()
   If(1,11,0,2,0)
    ShowMessageFace("",0,0,2,21)
    ShowMessage("Affection   10:水石")
    ShowMessage("Affection  100:グロウリスト")
    ShowMessage("Affection  500:海技の書")
    ShowMessage("Affection 2000:水のシンボル")
    0()
   EndIf()
   If(1,11,0,3,0)
    PictureClear(5)
    ShowMessageFace("",0,0,2,22)
    ShowMessage("Ask her for what? (Affection:\\V[3107])")
    ShowChoices(strings("Sea Cucumber Suck(Affection:10)","Never mind"),2)
    IfPlayerPicksChoice(0,null)
     If(1,3107,0,10,1)
      355("call_novel_scene(4326)")
      EndEventProcessing()
      0()
     Else()
      ShowMessageFace("namako_fc1",0,0,2,23)
      ShowMessage("\\n<Yume (Affection:\\V[3107])>また今度ね。 今日は貝娘を可愛がってあげないと……")
      0()
     EndIf()
     0()
    IfPlayerPicksChoice(1,null)
     0()
    404()
    0()
   EndIf()
   If(1,11,0,4,1)
    PictureClear(5)
    EndEventProcessing()
    0()
   EndIf()
   0()
  EndLoop()
  0()
 PAGE   2
  // condition: party contains actor #107
  0()



EVENT   8
 PAGE   1
  // condition: switch 1108 is ON
  PictureDisplay(5,"80_kai_st01",0,0,0,0,100,100,0,0)
  PictureMove(5,null,0,0,0,0,100,100,255,0,30,true)
  If(1,3108,0,10,1)
   If(1,4108,0,0,0)
    ChangeVariable(4108,4108,0,0,1)
    ShowMessageFace("kai_fc1",0,0,2,1)
    ShowMessage("\\n<Shelly (Affection:\\V[3108])>旦那様にプレゼントです。 これを私だと思って、大切にして下さいませ……")
    250(bytes(0x04,0x08,0x6f,0x3a,0x0c,0x52,0x50,0x47,0x3a,0x3a,0x53,0x45,0x08,0x3a,0x0a,0x40,0x6e,0x61,0x6d,0x65,0x49,0x22,0x0a,0x49,0x74,0x65,0x6d,0x31,0x06,0x3a,0x06,0x45,0x54,0x3a,0x0b,0x40,0x70,0x69,0x74,0x63,0x68,0x69,0x69,0x3a,0x0c,0x40,0x76,0x6f,0x6c,0x75,0x6d,0x65,0x69,0x55))
    ChangeInventoryArmor(165,0,0,1,false)
    0()
   EndIf()
   0()
  EndIf()
  If(1,3108,0,100,1)
   If(1,4108,0,1,0)
    ChangeVariable(4108,4108,0,0,2)
    ShowMessageFace("kai_fc1",0,0,2,2)
    ShowMessage("\\n<Shelly (Affection:\\V[3108])>旦那様にプレゼントです。 これを私だと思って、大切にして下さいませ……")
    250(bytes(0x04,0x08,0x6f,0x3a,0x0c,0x52,0x50,0x47,0x3a,0x3a,0x53,0x45,0x08,0x3a,0x0a,0x40,0x6e,0x61,0x6d,0x65,0x49,0x22,0x0a,0x49,0x74,0x65,0x6d,0x31,0x06,0x3a,0x06,0x45,0x54,0x3a,0x0b,0x40,0x70,0x69,0x74,0x63,0x68,0x69,0x69,0x3a,0x0c,0x40,0x76,0x6f,0x6c,0x75,0x6d,0x65,0x69,0x55))
    ChangeInventoryArmor(1021,0,0,1,false)
    0()
   EndIf()
   0()
  EndIf()
  If(1,3108,0,500,1)
   If(1,4108,0,2,0)
    ChangeVariable(4108,4108,0,0,3)
    ShowMessageFace("kai_fc1",0,0,2,3)
    ShowMessage("\\n<Shelly (Affection:\\V[3108])>旦那様にプレゼントです。 これを私だと思って、大切にして下さいませ……")
    250(bytes(0x04,0x08,0x6f,0x3a,0x0c,0x52,0x50,0x47,0x3a,0x3a,0x53,0x45,0x08,0x3a,0x0a,0x40,0x6e,0x61,0x6d,0x65,0x49,0x22,0x0a,0x49,0x74,0x65,0x6d,0x31,0x06,0x3a,0x06,0x45,0x54,0x3a,0x0b,0x40,0x70,0x69,0x74,0x63,0x68,0x69,0x69,0x3a,0x0c,0x40,0x76,0x6f,0x6c,0x75,0x6d,0x65,0x69,0x55))
    ChangeInventoryArmor(1022,0,0,1,false)
    0()
   EndIf()
   0()
  EndIf()
  If(1,3108,0,2000,1)
   If(1,4108,0,3,0)
    ChangeVariable(4108,4108,0,0,4)
    ShowMessageFace("kai_fc1",0,0,2,4)
    ShowMessage("\\n<Shelly (Affection:\\V[3108])>旦那様にプレゼントです。 これを私だと思って、大切にして下さいませ……")
    250(bytes(0x04,0x08,0x6f,0x3a,0x0c,0x52,0x50,0x47,0x3a,0x3a,0x53,0x45,0x08,0x3a,0x0a,0x40,0x6e,0x61,0x6d,0x65,0x49,0x22,0x0a,0x49,0x74,0x65,0x6d,0x31,0x06,0x3a,0x06,0x45,0x54,0x3a,0x0b,0x40,0x70,0x69,0x74,0x63,0x68,0x69,0x69,0x3a,0x0c,0x40,0x76,0x6f,0x6c,0x75,0x6d,0x65,0x69,0x55))
    ChangeInventoryArmor(1473,0,0,1,false)
    0()
   EndIf()
   0()
  EndIf()
  355("actor_label_jump")
  If(0,1107,0)
   If(4,107,0)
    ShowMessageFace("kai_fc1",0,0,2,5)
    ShowMessage("\\n<Shelly (Affection:\\V[3108])>逃げ足を鍛えておかないと…… いつか必要になる時が来る気がするのです。")
    0()
   EndIf()
   ShowMessageFace("kai_fc1",2,0,2,6)
   ShowMessage("\\n<Shelly (Affection:\\V[3108])>たすけて～！")
   0()
  Else()
   ShowMessageFace("kai_fc1",0,0,2,7)
   ShowMessage("\\n<Shelly (Affection:\\V[3108])>逃げ足を鍛えておかないと…… いつか必要になる時が来る気がするのです。")
   0()
  EndIf()
  JumpToLabel("メニュー")
  DefineLabel("107")
  ShowMessageFace("namako_fc1",1,0,2,8)
  ShowMessage("\\n<Yume (Affection:\\V[3107])>あっ、貝娘ちゃん♪ ほら、吸わせなさいよ……！")
  ShowMessageFace("kai_fc1",2,0,2,9)
  ShowMessage("\\n<Shelly (Affection:\\V[3108])>きゃ～！　たすけて～！")
  ShowMessageFace("namako_fc1",1,0,2,10)
  ShowMessage("\\n<Yume (Affection:\\V[3107])>あははっ、待て～♪")
  ShowMessageFace("kai_fc1",0,0,2,11)
  ShowMessage("\\n<Shelly (Affection:\\V[3108])>うふふっ……")
  ShowMessageFace("sonia_fc4",0,0,2,12)
  ShowMessage("\\n<Sonya>（なんだか楽しそう……)")
  JumpToLabel("メニュー")
  DefineLabel("114")
  ShowMessageFace("wakame_fc1",0,0,2,13)
  ShowMessage("\\n<Wakame (Affection:\\V[3114])>一緒に、おなべの中に入ろう…… いいダシがとれるんだって……")
  ShowMessageFace("kai_fc1",2,0,2,14)
  ShowMessage("\\n<Shelly (Affection:\\V[3108])>私達、お味噌汁にされてしまってもいいんですか……？")
  If(4,102,0)
   ShowMessageFace("youko_fc1",0,0,2,15)
   ShowMessage("\\n<Kitsu (Affection:\\V[3102])>あっ、おあげも入れていい？")
   ShowMessageFace("kai_fc1",0,0,2,16)
   ShowMessage("\\n<Shelly (Affection:\\V[3108])>では、きつね汁にしましょうか……")
   0()
  EndIf()
  JumpToLabel("メニュー")
  DefineLabel("143")
  ShowMessageFace("eva_fc1",2,0,2,17)
  ShowMessage("\\n<Eva (Affection:\\V[3143])>ねえ、殻の中に真珠を隠してない……？")
  ShowMessageFace("kai_fc1",0,0,2,18)
  ShowMessage("\\n<Shelly (Affection:\\V[3108])>いえ、私はアコヤ貝ではないので……")
  ShowMessageFace("eva_fc1",2,0,2,19)
  ShowMessage("\\n<Eva (Affection:\\V[3143])>残念…… じゃあ百歩譲って、お味噌汁の具にならない？")
  ShowMessageFace("kai_fc1",2,0,2,20)
  ShowMessage("\\n<Shelly (Affection:\\V[3108])>それ、本当に百歩も譲ったんですか……？")
  JumpToLabel("メニュー")
  DefineLabel("メニュー")
  StartLoop()
   355("unlimited_choices(11, [\"Give presents\",")
   655("\"Add to party\",")
   655("\"View present list\",\"Request\",")
   655("\"Never mind\"])")
   If(1,11,0,0,0)
    355("present_start(108)")
    0()
   EndIf()
   If(1,11,0,1,0)
    PictureClear(5)
    355("move_actor_ex(108)")
    EndEventProcessing()
    0()
   EndIf()
   If(1,11,0,2,0)
    ShowMessageFace("",0,0,2,21)
    ShowMessage("Affection   10:貝殻水着")
    ShowMessage("Affection  100:鉄の小手")
    ShowMessage("Affection  500:ミスリルの小手")
    ShowMessage("Affection 2000:敏感の印")
    0()
   EndIf()
   If(1,11,0,3,0)
    PictureClear(5)
    ShowMessageFace("",0,0,2,22)
    ShowMessage("Ask her for what? (Affection:\\V[3108])")
    ShowChoices(strings("Love Jail(Affection:10)","Never mind"),2)
    IfPlayerPicksChoice(0,null)
     If(1,3108,0,10,1)
      355("call_novel_scene(4331)")
      EndEventProcessing()
      0()
     Else()
      ShowMessageFace("kai_fc1",2,0,2,23)
      ShowMessage("\\n<Shelly (Affection:\\V[3108])>す、すみません…… 今日は先客がいますので。")
      0()
     EndIf()
     0()
    IfPlayerPicksChoice(1,null)
     0()
    404()
    0()
   EndIf()
   If(1,11,0,4,1)
    PictureClear(5)
    EndEventProcessing()
    0()
   EndIf()
   0()
  EndLoop()
  0()
 PAGE   2
  // condition: party contains actor #108
  0()



EVENT   12
 PAGE   1
  // condition: switch 1115 is ON
  PictureDisplay(5,"80_kurage_st01",0,0,0,0,100,100,0,0)
  PictureMove(5,null,0,0,0,0,100,100,255,0,30,true)
  If(1,3115,0,10,1)
   If(1,4115,0,0,0)
    ChangeVariable(4115,4115,0,0,1)
    ShowMessageFace("kurage_fc1",0,0,2,1)
    ShowMessage("\\n<Kurage (Affection:\\V[3115])>これ、あげる…… 大切にしてね……")
    250(bytes(0x04,0x08,0x6f,0x3a,0x0c,0x52,0x50,0x47,0x3a,0x3a,0x53,0x45,0x08,0x3a,0x0a,0x40,0x6e,0x61,0x6d,0x65,0x49,0x22,0x0a,0x49,0x74,0x65,0x6d,0x31,0x06,0x3a,0x06,0x45,0x54,0x3a,0x0b,0x40,0x70,0x69,0x74,0x63,0x68,0x69,0x69,0x3a,0x0c,0x40,0x76,0x6f,0x6c,0x75,0x6d,0x65,0x69,0x55))
    ChangeInventory_Item(71,0,0,1)
    0()
   EndIf()
   0()
  EndIf()
  If(1,3115,0,100,1)
   If(1,4115,0,1,0)
    ChangeVariable(4115,4115,0,0,2)
    ShowMessageFace("kurage_fc1",0,0,2,2)
    ShowMessage("\\n<Kurage (Affection:\\V[3115])>これ、あげる…… 大切にしてね……")
    250(bytes(0x04,0x08,0x6f,0x3a,0x0c,0x52,0x50,0x47,0x3a,0x3a,0x53,0x45,0x08,0x3a,0x0a,0x40,0x6e,0x61,0x6d,0x65,0x49,0x22,0x0a,0x49,0x74,0x65,0x6d,0x31,0x06,0x3a,0x06,0x45,0x54,0x3a,0x0b,0x40,0x70,0x69,0x74,0x63,0x68,0x69,0x69,0x3a,0x0c,0x40,0x76,0x6f,0x6c,0x75,0x6d,0x65,0x69,0x55))
    ChangeInventoryArmor(1723,0,0,1,false)
    0()
   EndIf()
   0()
  EndIf()
  If(1,3115,0,500,1)
   If(1,4115,0,2,0)
    ChangeVariable(4115,4115,0,0,3)
    ShowMessageFace("kurage_fc1",0,0,2,3)
    ShowMessage("\\n<Kurage (Affection:\\V[3115])>これ、あげる…… 大切にしてね……")
    250(bytes(0x04,0x08,0x6f,0x3a,0x0c,0x52,0x50,0x47,0x3a,0x3a,0x53,0x45,0x08,0x3a,0x0a,0x40,0x6e,0x61,0x6d,0x65,0x49,0x22,0x0a,0x49,0x74,0x65,0x6d,0x31,0x06,0x3a,0x06,0x45,0x54,0x3a,0x0b,0x40,0x70,0x69,0x74,0x63,0x68,0x69,0x69,0x3a,0x0c,0x40,0x76,0x6f,0x6c,0x75,0x6d,0x65,0x69,0x55))
    ChangeInventoryArmor(1558,0,0,1,false)
    0()
   EndIf()
   0()
  EndIf()
  If(1,3115,0,2000,1)
   If(1,4115,0,3,0)
    ChangeVariable(4115,4115,0,0,4)
    ShowMessageFace("kurage_fc1",0,0,2,4)
    ShowMessage("\\n<Kurage (Affection:\\V[3115])>これ、あげる…… 大切にしてね……")
    250(bytes(0x04,0x08,0x6f,0x3a,0x0c,0x52,0x50,0x47,0x3a,0x3a,0x53,0x45,0x08,0x3a,0x0a,0x40,0x6e,0x61,0x6d,0x65,0x49,0x22,0x0a,0x49,0x74,0x65,0x6d,0x31,0x06,0x3a,0x06,0x45,0x54,0x3a,0x0b,0x40,0x70,0x69,0x74,0x63,0x68,0x69,0x69,0x3a,0x0c,0x40,0x76,0x6f,0x6c,0x75,0x6d,0x65,0x69,0x55))
    ChangeInventoryArmor(1101,0,0,1,false)
    0()
   EndIf()
   0()
  EndIf()
  355("actor_label_jump")
  ShowMessageFace("kurage_fc1",0,0,2,5)
  ShowMessage("\\n<Kurage (Affection:\\V[3115])>くらげ、ぷかぷか……")
  JumpToLabel("メニュー")
  DefineLabel("90")
  ShowMessageFace("kurage_fc1",0,0,2,6)
  ShowMessage("\\n<Kurage (Affection:\\V[3115])>ふらふら……")
  ShowMessageFace("meda_fc1",0,0,2,7)
  ShowMessage("\\n<Meru Meru (Affection:\\V[3090])>かさかさ……")
  ShowMessageFace("kurage_fc1",0,0,2,8)
  ShowMessage("\\n<Kurage (Affection:\\V[3115])>ゆらゆら……ふらり……")
  ShowMessageFace("meda_fc1",0,0,2,9)
  ShowMessage("\\n<Meru Meru (Affection:\\V[3090])>かさかさ、もぞもぞ……")
  ShowMessageFace("",0,0,2,10)
  ShowMessage("心が通じ合ったようだ……")
  JumpToLabel("メニュー")
  DefineLabel("114")
  ShowMessageFace("wakame_fc1",1,0,2,11)
  ShowMessage("\\n<Wakame (Affection:\\V[3114])>くらげちゃん、ゆらゆら……")
  ShowMessageFace("kurage_fc1",0,0,2,12)
  ShowMessage("\\n<Kurage (Affection:\\V[3115])>わかめちゃん、ふらふら……")
  ShowMessageFace("wakame_fc1",1,0,2,13)
  ShowMessage("\\n<Wakame (Affection:\\V[3114])>いっしょにおどろう、ゆらゆらゆらり……")
  ShowMessageFace("kurage_fc1",0,0,2,14)
  ShowMessage("\\n<Kurage (Affection:\\V[3115])>ふらふら、ふらり……")
  JumpToLabel("メニュー")
  DefineLabel("116")
  ShowMessageFace("kurage_fc1",0,0,2,15)
  ShowMessage("\\n<Kurage (Affection:\\V[3115])>ふらふら……")
  ShowMessageFace("iso_fc1",0,0,2,16)
  ShowMessage("\\n<Isabelle (Affection:\\V[3116])>私達、性質は似通ってるのに…… 性格は真逆な感じがするのよね。")
  ShowMessageFace("kurage_fc1",0,0,2,17)
  ShowMessage("\\n<Kurage (Affection:\\V[3115])>ゆらゆら……")
  ShowMessageFace("iso_fc1",0,0,2,18)
  ShowMessage("\\n<Isabelle (Affection:\\V[3116])>どっちも獰猛に獲物を捕食する種族なのに…… どこで差が付いたのかしら？")
  JumpToLabel("メニュー")
  DefineLabel("154")
  ShowMessageFace("kurage_fc1",0,0,2,19)
  ShowMessage("\\n<Kurage (Affection:\\V[3115])>ぷかぷか……")
  ShowMessageFace("wani_fc1",0,0,2,20)
  ShowMessage("\\n<Gaa (Affection:\\V[3154])>ぼんやり……")
  ShowMessageFace("kurage_fc1",0,0,2,21)
  ShowMessage("\\n<Kurage (Affection:\\V[3115])>ぷかり……")
  ShowMessageFace("wani_fc1",0,0,2,22)
  ShowMessage("\\n<Gaa (Affection:\\V[3154])>がぁ……")
  ShowMessageFace("",0,0,2,23)
  ShowMessage("妙にウマが合っているようだ……")
  JumpToLabel("メニュー")
  DefineLabel("メニュー")
  StartLoop()
   355("unlimited_choices(11, [\"Give presents\",")
   655("\"Add to party\",")
   655("\"View present list\",\"Request\",")
   655("\"Never mind\"])")
   If(1,11,0,0,0)
    355("present_start(115)")
    0()
   EndIf()
   If(1,11,0,1,0)
    PictureClear(5)
    355("move_actor_ex(115)")
    EndEventProcessing()
    0()
   EndIf()
   If(1,11,0,2,0)
    ShowMessageFace("",0,0,2,24)
    ShowMessage("Affection   10:水石")
    ShowMessage("Affection  100:退魔の腕輪")
    ShowMessage("Affection  500:パラライチェック")
    ShowMessage("Affection 2000:反射のリング")
    0()
   EndIf()
   If(1,11,0,3,0)
    PictureClear(5)
    ShowMessageFace("",0,0,2,25)
    ShowMessage("Ask her for what? (Affection:\\V[3115])")
    ShowChoices(strings("Predation(Affection:10)","Predation...?(Affection:100)","Never mind"),3)
    IfPlayerPicksChoice(0,null)
     If(1,3115,0,10,1)
      355("call_novel_scene(4366)")
      EndEventProcessing()
      0()
     Else()
      ShowMessageFace("kurage_fc1",0,0,2,26)
      ShowMessage("\\n<Kurage (Affection:\\V[3115])>またこんどね……")
      0()
     EndIf()
     0()
    IfPlayerPicksChoice(1,null)
     If(1,3115,0,100,1)
      355("call_novel_scene(4367)")
      EndEventProcessing()
      0()
     Else()
      ShowMessageFace("kurage_fc1",0,0,2,27)
      ShowMessage("\\n<Kurage (Affection:\\V[3115])>またこんどね……")
      0()
     EndIf()
     0()
    IfPlayerPicksChoice(2,null)
     0()
    404()
    0()
   EndIf()
   If(1,11,0,4,1)
    PictureClear(5)
    EndEventProcessing()
    0()
   EndIf()
   0()
  EndLoop()
  0()
 PAGE   2
  // condition: party contains actor #115
  0()



EVENT   13
 PAGE   1
  // condition: switch 1118 is ON
  PictureDisplay(5,"80_meia_st01",0,0,0,0,100,100,0,0)
  PictureMove(5,null,0,0,0,0,100,100,255,0,30,true)
  If(1,3118,0,100,1)
   If(1,4118,0,0,0)
    ChangeVariable(4118,4118,0,0,1)
    ShowMessageFace("meia_fc1",2,0,2,1)
    ShowMessage("\\n<Meia (Affection:\\V[3118])>どうぞ、私からの気持ちです。 これからも、よろしくお願いしますね……♪")
    250(bytes(0x04,0x08,0x6f,0x3a,0x0c,0x52,0x50,0x47,0x3a,0x3a,0x53,0x45,0x08,0x3a,0x0a,0x40,0x6e,0x61,0x6d,0x65,0x49,0x22,0x0a,0x49,0x74,0x65,0x6d,0x31,0x06,0x3a,0x06,0x45,0x54,0x3a,0x0b,0x40,0x70,0x69,0x74,0x63,0x68,0x69,0x69,0x3a,0x0c,0x40,0x76,0x6f,0x6c,0x75,0x6d,0x65,0x69,0x55))
    ChangeInventoryArmor(1100,0,0,1,false)
    0()
   EndIf()
   0()
  EndIf()
  If(1,3118,0,500,1)
   If(1,4118,0,1,0)
    ChangeVariable(4118,4118,0,0,2)
    ShowMessageFace("meia_fc1",2,0,2,2)
    ShowMessage("\\n<Meia (Affection:\\V[3118])>どうぞ、私からの気持ちです。 これからも、よろしくお願いしますね……♪")
    250(bytes(0x04,0x08,0x6f,0x3a,0x0c,0x52,0x50,0x47,0x3a,0x3a,0x53,0x45,0x08,0x3a,0x0a,0x40,0x6e,0x61,0x6d,0x65,0x49,0x22,0x0a,0x49,0x74,0x65,0x6d,0x31,0x06,0x3a,0x06,0x45,0x54,0x3a,0x0b,0x40,0x70,0x69,0x74,0x63,0x68,0x69,0x69,0x3a,0x0c,0x40,0x76,0x6f,0x6c,0x75,0x6d,0x65,0x69,0x55))
    ChangeInventoryArmor(1267,0,0,1,false)
    0()
   EndIf()
   0()
  EndIf()
  If(1,3118,0,2000,1)
   If(1,4118,0,2,0)
    ChangeVariable(4118,4118,0,0,3)
    ShowMessageFace("meia_fc1",2,0,2,3)
    ShowMessage("\\n<Meia (Affection:\\V[3118])>どうぞ、私からの気持ちです。 これからも、よろしくお願いしますね……♪")
    250(bytes(0x04,0x08,0x6f,0x3a,0x0c,0x52,0x50,0x47,0x3a,0x3a,0x53,0x45,0x08,0x3a,0x0a,0x40,0x6e,0x61,0x6d,0x65,0x49,0x22,0x0a,0x49,0x74,0x65,0x6d,0x31,0x06,0x3a,0x06,0x45,0x54,0x3a,0x0b,0x40,0x70,0x69,0x74,0x63,0x68,0x69,0x69,0x3a,0x0c,0x40,0x76,0x6f,0x6c,0x75,0x6d,0x65,0x69,0x55))
    ChangeInventoryArmor(1207,0,0,1,false)
    0()
   EndIf()
   0()
  EndIf()
  If(1,3118,0,4000,1)
   If(1,4118,0,3,0)
    ChangeVariable(4118,4118,0,0,4)
    ShowMessageFace("meia_fc1",2,0,2,4)
    ShowMessage("\\n<Meia (Affection:\\V[3118])>どうぞ、私からの気持ちです。 これからも、よろしくお願いしますね……♪")
    250(bytes(0x04,0x08,0x6f,0x3a,0x0c,0x52,0x50,0x47,0x3a,0x3a,0x53,0x45,0x08,0x3a,0x0a,0x40,0x6e,0x61,0x6d,0x65,0x49,0x22,0x0a,0x49,0x74,0x65,0x6d,0x31,0x06,0x3a,0x06,0x45,0x54,0x3a,0x0b,0x40,0x70,0x69,0x74,0x63,0x68,0x69,0x69,0x3a,0x0c,0x40,0x76,0x6f,0x6c,0x75,0x6d,0x65,0x69,0x55))
    ChangeInventoryArmor(1328,0,0,1,false)
    0()
   EndIf()
   0()
  EndIf()
  355("actor_label_jump")
  ShowMessageFace("meia_fc1",0,0,2,5)
  ShowMessage("\\n<Meia (Affection:\\V[3118])>ふふっ、私を連れて行ってくれませんか？ 少し羽根を伸ばしたい気分ですので……")
  JumpToLabel("メニュー")
  DefineLabel("72")
  ShowMessageFace("phoenix_fc1",2,0,2,6)
  ShowMessage("\\n<Mini (Affection:\\V[3072])>へ、変態の人魚だぞー！ 男の子が大好物とか、怖いのだ！")
  ShowMessageFace("meia_fc1",3,0,2,7)
  ShowMessage("\\n<Meia (Affection:\\V[3118])>それは偏見です…… 男の子にしか興味がないなんて、風評被害ですよ。")
  ShowMessageFace("phoenix_fc1",3,0,2,8)
  ShowMessage("\\n<Mini (Affection:\\V[3072])>そうなのか……？")
  ShowMessageFace("meia_fc1",2,0,2,9)
  ShowMessage("\\n<Meia (Affection:\\V[3118])>私、女の子も大好きですから。")
  ShowMessageFace("phoenix_fc1",2,0,2,10)
  ShowMessage("\\n<Mini (Affection:\\V[3072])>やっぱり変態だぞー！")
  JumpToLabel("メニュー")
  DefineLabel("99")
  ShowMessageFace("meia_fc1",1,0,2,11)
  ShowMessage("\\n<Meia (Affection:\\V[3118])>あら、こんにちはナマズさん……")
  ShowMessageFace("namazu_fc1",0,0,2,12)
  ShowMessage("\\n<Gigi (Affection:\\V[3099])>おお、ナタリアポートの人魚か。 あの町はいいのう、儂もあそこで隠居しようか……")
  ShowMessageFace("meia_fc1",2,0,2,13)
  ShowMessage("\\n<Meia (Affection:\\V[3118])>まだ隠居なんて歳じゃないでしょう。 人魚たる者、800年は現役ですよ。")
  ShowMessageFace("namazu_fc1",0,0,2,14)
  ShowMessage("\\n<Gigi (Affection:\\V[3099])>うむ、当分はがんばるか…… ところで人間は何歳まで現役だと思う？")
  ShowMessageFace("meia_fc1",3,0,2,15)
  ShowMessage("\\n<Meia (Affection:\\V[3118])>えっ？　12歳くらいでしょうか……？")
  JumpToLabel("メニュー")
  DefineLabel("134")
  ShowMessageFace("chrom_fc2",0,0,2,16)
  ShowMessage("\\n<Chrome (Affection:\\V[3134])>むっ、人魚か…… 新鮮な人魚の死体があれば、譲ってほしいのじゃ。")
  ShowMessageFace("meia_fc1",3,0,2,17)
  ShowMessage("\\n<Meia (Affection:\\V[3118])>そ、そんな……なんて事を！")
  ShowMessageFace("chrom_fc2",3,0,2,18)
  ShowMessage("\\n<Chrome (Affection:\\V[3134])>冗談じゃ、くくくっ……")
  ShowMessageFace("meia_fc1",1,0,2,19)
  ShowMessage("\\n<Meia (Affection:\\V[3118])>では、新鮮な少年の死体と交換でどうですか？？")
  ShowMessageFace("chrom_fc1",6,0,2,20)
  ShowMessage("\\n<Chrome (Affection:\\V[3134])>…………！？")
  ShowMessageFace("meia_fc1",3,0,2,21)
  ShowMessage("\\n<Meia (Affection:\\V[3118])>冗談ですよ、ふふふっ……")
  JumpToLabel("メニュー")
  DefineLabel("144")
  ShowMessageFace("saboresu_fc1",0,0,2,22)
  ShowMessage("\\n<Sunny (Affection:\\V[3144])>ねぇ、あたし海賊になりたいんだけど！")
  ShowMessageFace("meia_fc1",0,0,2,23)
  ShowMessage("\\n<Meia (Affection:\\V[3118])>海賊と言えば、略奪ですね。 少年を拉致し、売り払ったりしたいんですか？")
  ShowMessageFace("saboresu_fc1",2,0,2,24)
  ShowMessage("\\n<Sunny (Affection:\\V[3144])>それはあんたでしょ……")
  JumpToLabel("メニュー")
  DefineLabel("155")
  ShowMessageFace("meia_fc1",1,0,2,25)
  ShowMessage("\\n<Meia (Affection:\\V[3118])>アイドルなんて、すごいんですね。 私も歌には自信がありますけど、そこまでは……")
  ShowMessageFace("saki_fc1",0,0,2,26)
  ShowMessage("\\n<Saki (Affection:\\V[3155])>なら、一緒にアイドルやってみる？ メイアさんなら、かなり人気出ると思うよ☆")
  ShowMessageFace("meia_fc1",2,0,2,27)
  ShowMessage("\\n<Meia (Affection:\\V[3118])>人気ですか…… 少年のファンに囲まれて……ふふふっ……")
  ShowMessageFace("saki_fc1",2,0,2,28)
  ShowMessage("\\n<Saki (Affection:\\V[3155])>ファンに手出し厳禁…… ……っていうか、少年限定なの？")
  JumpToLabel("メニュー")
  DefineLabel("542")
  ShowMessageFace("domeima_fc1",0,0,2,29)
  ShowMessage("\\n<Domaimer (Affection:\\V[3542])>み……水……")
  ShowMessageFace("meia_fc1",0,0,2,30)
  ShowMessage("\\n<Meia (Affection:\\V[3118])>あら、ずいぶんと珍しい人魚さん。 はい、水をどうぞ……")
  ShowMessageFace("domeima_fc1",0,0,2,31)
  ShowMessage("\\n<Domaimer (Affection:\\V[3542])>助かりました。 では竜宮城に招待しましょう……")
  ShowMessageFace("meia_fc1",2,0,2,32)
  ShowMessage("\\n<Meia (Affection:\\V[3118])>恩を仇で返すような事、いけませんよ……")
  ShowMessageFace("sonia_fc4",0,0,2,33)
  ShowMessage("\\n<Sonya>（ボケばっかりで、ツッコミ不在……)")
  JumpToLabel("メニュー")
  DefineLabel("メニュー")
  StartLoop()
   355("unlimited_choices(11, [\"Give presents\",")
   655("\"Add to party\",")
   655("\"View present list\",\"Request\",")
   655("\"Never mind\"])")
   If(1,11,0,0,0)
    355("present_start(118)")
    0()
   EndIf()
   If(1,11,0,1,0)
    PictureClear(5)
    355("move_actor_ex(118)")
    EndEventProcessing()
    0()
   EndIf()
   If(1,11,0,2,0)
    ShowMessageFace("",0,0,2,34)
    ShowMessage("Affection  100:ミラーリング")
    ShowMessage("Affection  500:音波の書")
    ShowMessage("Affection 2000:水のシンボル")
    ShowMessage("Affection 4000:竪琴の秘伝書")
    0()
   EndIf()
   If(1,11,0,3,0)
    PictureClear(5)
    ShowMessageFace("",0,0,2,35)
    ShowMessage("Ask her for what? (Affection:\\V[3118])")
    ShowChoices(strings("Blowjob(Affection:10)","Reverse rape(Affection:100)","Never mind"),3)
    IfPlayerPicksChoice(0,null)
     If(1,3118,0,10,1)
      355("call_novel_scene(4381)")
      EndEventProcessing()
      0()
     Else()
      ShowMessageFace("meia_fc1",0,0,2,36)
      ShowMessage("\\n<Meia (Affection:\\V[3118])>それは、ちょっと…… 旦那様に悪いですし……")
      0()
     EndIf()
     0()
    IfPlayerPicksChoice(1,null)
     If(1,3118,0,100,1)
      355("call_novel_scene(4382)")
      EndEventProcessing()
      0()
     Else()
      ShowMessageFace("meia_fc1",0,0,2,37)
      ShowMessage("\\n<Meia (Affection:\\V[3118])>それは、ちょっと…… 旦那様に悪いですし……")
      0()
     EndIf()
     0()
    IfPlayerPicksChoice(2,null)
     0()
    404()
    0()
   EndIf()
   If(1,11,0,4,1)
    PictureClear(5)
    EndEventProcessing()
    0()
   EndIf()
   0()
  EndLoop()
  0()
 PAGE   2
  // condition: party contains actor #118
  0()



EVENT   14
 PAGE   1
  // condition: switch 1116 is ON
  PictureDisplay(5,"80_iso_st01",0,0,0,0,100,100,0,0)
  PictureMove(5,null,0,0,0,0,100,100,255,0,30,true)
  If(1,3116,0,10,1)
   If(1,4116,0,0,0)
    ChangeVariable(4116,4116,0,0,1)
    ShowMessageFace("iso_fc1",0,0,2,1)
    ShowMessage("\\n<Isabelle (Affection:\\V[3116])>ふふっ、私からのプレゼントよ…… この想いに応えてくれるわよね……？")
    250(bytes(0x04,0x08,0x6f,0x3a,0x0c,0x52,0x50,0x47,0x3a,0x3a,0x53,0x45,0x08,0x3a,0x0a,0x40,0x6e,0x61,0x6d,0x65,0x49,0x22,0x0a,0x49,0x74,0x65,0x6d,0x31,0x06,0x3a,0x06,0x45,0x54,0x3a,0x0b,0x40,0x70,0x69,0x74,0x63,0x68,0x69,0x69,0x3a,0x0c,0x40,0x76,0x6f,0x6c,0x75,0x6d,0x65,0x69,0x55))
    ChangeInventoryWeapon(730,0,0,1,false)
    0()
   EndIf()
   0()
  EndIf()
  If(1,3116,0,100,1)
   If(1,4116,0,1,0)
    ChangeVariable(4116,4116,0,0,2)
    ShowMessageFace("iso_fc1",0,0,2,2)
    ShowMessage("\\n<Isabelle (Affection:\\V[3116])>ふふっ、私からのプレゼントよ…… この想いに応えてくれるわよね……？")
    250(bytes(0x04,0x08,0x6f,0x3a,0x0c,0x52,0x50,0x47,0x3a,0x3a,0x53,0x45,0x08,0x3a,0x0a,0x40,0x6e,0x61,0x6d,0x65,0x49,0x22,0x0a,0x49,0x74,0x65,0x6d,0x31,0x06,0x3a,0x06,0x45,0x54,0x3a,0x0b,0x40,0x70,0x69,0x74,0x63,0x68,0x69,0x69,0x3a,0x0c,0x40,0x76,0x6f,0x6c,0x75,0x6d,0x65,0x69,0x55))
    ChangeInventoryArmor(1725,0,0,1,false)
    0()
   EndIf()
   0()
  EndIf()
  If(1,3116,0,500,1)
   If(1,4116,0,2,0)
    ChangeVariable(4116,4116,0,0,3)
    ShowMessageFace("iso_fc1",0,0,2,3)
    ShowMessage("\\n<Isabelle (Affection:\\V[3116])>ふふっ、私からのプレゼントよ…… この想いに応えてくれるわよね……？")
    250(bytes(0x04,0x08,0x6f,0x3a,0x0c,0x52,0x50,0x47,0x3a,0x3a,0x53,0x45,0x08,0x3a,0x0a,0x40,0x6e,0x61,0x6d,0x65,0x49,0x22,0x0a,0x49,0x74,0x65,0x6d,0x31,0x06,0x3a,0x06,0x45,0x54,0x3a,0x0b,0x40,0x70,0x69,0x74,0x63,0x68,0x69,0x69,0x3a,0x0c,0x40,0x76,0x6f,0x6c,0x75,0x6d,0x65,0x69,0x55))
    ChangeInventoryArmor(1576,0,0,1,false)
    0()
   EndIf()
   0()
  EndIf()
  If(1,3116,0,2000,1)
   If(1,4116,0,3,0)
    ChangeVariable(4116,4116,0,0,4)
    ShowMessageFace("iso_fc1",0,0,2,4)
    ShowMessage("\\n<Isabelle (Affection:\\V[3116])>ふふっ、私からのプレゼントよ…… この想いに応えてくれるわよね……？")
    250(bytes(0x04,0x08,0x6f,0x3a,0x0c,0x52,0x50,0x47,0x3a,0x3a,0x53,0x45,0x08,0x3a,0x0a,0x40,0x6e,0x61,0x6d,0x65,0x49,0x22,0x0a,0x49,0x74,0x65,0x6d,0x31,0x06,0x3a,0x06,0x45,0x54,0x3a,0x0b,0x40,0x70,0x69,0x74,0x63,0x68,0x69,0x69,0x3a,0x0c,0x40,0x76,0x6f,0x6c,0x75,0x6d,0x65,0x69,0x55))
    ChangeInventoryArmor(1437,0,0,1,false)
    0()
   EndIf()
   0()
  EndIf()
  355("actor_label_jump")
  ShowMessageFace("iso_fc1",2,0,2,5)
  ShowMessage("\\n<Isabelle (Affection:\\V[3116])>ここにいると、獲物が来ないじゃないの…… ねぇ、何か食べさせなさいよ。")
  JumpToLabel("メニュー")
  DefineLabel("107")
  ShowMessageFace("namako_fc1",0,0,2,6)
  ShowMessage("\\n<Yume (Affection:\\V[3107])>相変わらず攻撃的よね、イソギンチャクは…… 平和を愛するナマコみたいに、平穏に生きればいいのに。")
  ShowMessageFace("iso_fc1",0,0,2,7)
  ShowMessage("\\n<Isabelle (Affection:\\V[3116])>私は肉食なの…… あなたの勝手な価値観を押し付けないでくれる？")
  ShowMessageFace("namako_fc1",2,0,2,8)
  ShowMessage("\\n<Yume (Affection:\\V[3107])>そういう価値観を押し付け返してるのは、あなたでしょ？")
  ShowMessageFace("iso_fc1",2,0,2,9)
  ShowMessage("\\n<Isabelle (Affection:\\V[3116])>その価値観の価値観を押し付け返して…… ……なんだか、わけが分からなくなってきたわね。")
  JumpToLabel("メニュー")
  DefineLabel("115")
  ShowMessageFace("kurage_fc1",0,0,2,10)
  ShowMessage("\\n<Kurage (Affection:\\V[3115])>ふらふら……")
  ShowMessageFace("iso_fc1",0,0,2,11)
  ShowMessage("\\n<Isabelle (Affection:\\V[3116])>私達、性質は似通ってるのに…… 性格は真逆な感じがするのよね。")
  ShowMessageFace("kurage_fc1",0,0,2,12)
  ShowMessage("\\n<Kurage (Affection:\\V[3115])>ゆらゆら……")
  ShowMessageFace("iso_fc1",0,0,2,13)
  ShowMessage("\\n<Isabelle (Affection:\\V[3116])>どっちも獰猛に獲物を捕食する種族なのに…… どこで差が付いたのかしら？")
  JumpToLabel("メニュー")
  DefineLabel("173")
  ShowMessageFace("arizigoku_fc1",0,0,2,14)
  ShowMessage("\\n<Helen (Affection:\\V[3173])>あなたと私は、意外に似てるわよね。")
  ShowMessageFace("iso_fc1",0,0,2,15)
  ShowMessage("\\n<Isabelle (Affection:\\V[3116])>一箇所に腰を落ち着けて、獲物を待ち構えて…… ふふっ、似たもの同士かもね。")
  ShowMessageFace("arizigoku_fc1",0,0,2,16)
  ShowMessage("\\n<Helen (Affection:\\V[3173])>（砂漠に来たら、食べてやるわ……)")
  ShowMessageFace("iso_fc1",0,0,2,17)
  ShowMessage("\\n<Isabelle (Affection:\\V[3116])>（海に来たら、食べてやるわ……)")
  JumpToLabel("メニュー")
  DefineLabel("メニュー")
  StartLoop()
   355("unlimited_choices(11, [\"Give presents\",")
   655("\"Add to party\",")
   655("\"View present list\",\"Request\",")
   655("\"Never mind\"])")
   If(1,11,0,0,0)
    355("present_start(116)")
    0()
   EndIf()
   If(1,11,0,1,0)
    PictureClear(5)
    355("move_actor_ex(116)")
    EndEventProcessing()
    0()
   EndIf()
   If(1,11,0,2,0)
    ShowMessageFace("",0,0,2,18)
    ShowMessage("Affection   10:さざなみの扇")
    ShowMessage("Affection  100:召魔の腕輪")
    ShowMessage("Affection  500:メルトチェック")
    ShowMessage("Affection 2000:麻痺の印")
    0()
   EndIf()
   If(1,11,0,3,0)
    PictureClear(5)
    ShowMessageFace("",0,0,2,19)
    ShowMessage("Ask her for what? (Affection:\\V[3116])")
    ShowChoices(strings("Predation(Affection:10)","Predation...?(Affection:100)","Never mind"),3)
    IfPlayerPicksChoice(0,null)
     If(1,3116,0,10,1)
      355("call_novel_scene(4371)")
      EndEventProcessing()
      0()
     Else()
      ShowMessageFace("iso_fc1",0,0,2,20)
      ShowMessage("\\n<Isabelle (Affection:\\V[3116])>あなたを嫐るのは、また今度よ。 今日はのんびりしたい気分なの……")
      0()
     EndIf()
     0()
    IfPlayerPicksChoice(1,null)
     If(1,3116,0,100,1)
      355("call_novel_scene(4372)")
      EndEventProcessing()
      0()
     Else()
      ShowMessageFace("iso_fc1",0,0,2,21)
      ShowMessage("\\n<Isabelle (Affection:\\V[3116])>あなたを嫐るのは、また今度よ。 今日はのんびりしたい気分なの……")
      0()
     EndIf()
     0()
    IfPlayerPicksChoice(2,null)
     0()
    404()
    0()
   EndIf()
   If(1,11,0,4,1)
    PictureClear(5)
    EndEventProcessing()
    0()
   EndIf()
   0()
  EndLoop()
  0()
 PAGE   2
  // condition: party contains actor #116
  0()



EVENT   15
 PAGE   1
  // condition: switch 1114 is ON
  PictureDisplay(5,"80_wakame_st01",0,0,0,0,100,100,0,0)
  PictureMove(5,null,0,0,0,0,100,100,255,0,30,true)
  If(1,3114,0,10,1)
   If(1,4114,0,0,0)
    ChangeVariable(4114,4114,0,0,1)
    ShowMessageFace("wakame_fc1",0,0,2,1)
    ShowMessage("\\n<Wakame (Affection:\\V[3114])>ゆらゆら…… 波間にただよう贈り物……")
    250(bytes(0x04,0x08,0x6f,0x3a,0x0c,0x52,0x50,0x47,0x3a,0x3a,0x53,0x45,0x08,0x3a,0x0a,0x40,0x6e,0x61,0x6d,0x65,0x49,0x22,0x0a,0x49,0x74,0x65,0x6d,0x31,0x06,0x3a,0x06,0x45,0x54,0x3a,0x0b,0x40,0x70,0x69,0x74,0x63,0x68,0x69,0x69,0x3a,0x0c,0x40,0x76,0x6f,0x6c,0x75,0x6d,0x65,0x69,0x55))
    ChangeInventory_Item(71,0,0,1)
    0()
   EndIf()
   0()
  EndIf()
  If(1,3114,0,100,1)
   If(1,4114,0,1,0)
    ChangeVariable(4114,4114,0,0,2)
    ShowMessageFace("wakame_fc1",0,0,2,2)
    ShowMessage("\\n<Wakame (Affection:\\V[3114])>ゆらゆら…… 波間にただよう贈り物……")
    250(bytes(0x04,0x08,0x6f,0x3a,0x0c,0x52,0x50,0x47,0x3a,0x3a,0x53,0x45,0x08,0x3a,0x0a,0x40,0x6e,0x61,0x6d,0x65,0x49,0x22,0x0a,0x49,0x74,0x65,0x6d,0x31,0x06,0x3a,0x06,0x45,0x54,0x3a,0x0b,0x40,0x70,0x69,0x74,0x63,0x68,0x69,0x69,0x3a,0x0c,0x40,0x76,0x6f,0x6c,0x75,0x6d,0x65,0x69,0x55))
    ChangeInventoryArmor(1171,0,0,1,false)
    0()
   EndIf()
   0()
  EndIf()
  If(1,3114,0,500,1)
   If(1,4114,0,2,0)
    ChangeVariable(4114,4114,0,0,3)
    ShowMessageFace("wakame_fc1",0,0,2,3)
    ShowMessage("\\n<Wakame (Affection:\\V[3114])>ゆらゆら…… 波間にただよう贈り物……")
    250(bytes(0x04,0x08,0x6f,0x3a,0x0c,0x52,0x50,0x47,0x3a,0x3a,0x53,0x45,0x08,0x3a,0x0a,0x40,0x6e,0x61,0x6d,0x65,0x49,0x22,0x0a,0x49,0x74,0x65,0x6d,0x31,0x06,0x3a,0x06,0x45,0x54,0x3a,0x0b,0x40,0x70,0x69,0x74,0x63,0x68,0x69,0x69,0x3a,0x0c,0x40,0x76,0x6f,0x6c,0x75,0x6d,0x65,0x69,0x55))
    ChangeInventoryArmor(1012,0,0,1,false)
    0()
   EndIf()
   0()
  EndIf()
  If(1,3114,0,2000,1)
   If(1,4114,0,3,0)
    ChangeVariable(4114,4114,0,0,4)
    ShowMessageFace("wakame_fc1",0,0,2,4)
    ShowMessage("\\n<Wakame (Affection:\\V[3114])>ゆらゆら…… 波間にただよう贈り物……")
    250(bytes(0x04,0x08,0x6f,0x3a,0x0c,0x52,0x50,0x47,0x3a,0x3a,0x53,0x45,0x08,0x3a,0x0a,0x40,0x6e,0x61,0x6d,0x65,0x49,0x22,0x0a,0x49,0x74,0x65,0x6d,0x31,0x06,0x3a,0x06,0x45,0x54,0x3a,0x0b,0x40,0x70,0x69,0x74,0x63,0x68,0x69,0x69,0x3a,0x0c,0x40,0x76,0x6f,0x6c,0x75,0x6d,0x65,0x69,0x55))
    ChangeInventoryArmor(1143,0,0,1,false)
    0()
   EndIf()
   0()
  EndIf()
  355("actor_label_jump")
  ShowMessageFace("wakame_fc1",1,0,2,5)
  ShowMessage("\\n<Wakame (Affection:\\V[3114])>わかめ、ゆらゆら…… こおどり、こおどり……")
  JumpToLabel("メニュー")
  DefineLabel("41")
  ShowMessageFace("wakame_fc1",0,0,2,6)
  ShowMessage("\\n<Wakame (Affection:\\V[3114])>わかめ、ゆらゆら……")
  ShowMessageFace("stein_fc2",0,0,2,7)
  ShowMessage("\\n<Promestein (Affection:\\V[3041])>わかめですか…… 意外に原生生物の特質が残っているんですよね……")
  ShowMessageFace("stein_fc2",1,0,2,8)
  ShowMessage("\\n<Promestein (Affection:\\V[3041])>……ひらめきました！")
  ShowMessageFace("wakame_fc1",1,0,2,9)
  ShowMessage("\\n<Wakame (Affection:\\V[3114])>おいしいお味噌汁の作り方……？")
  ShowMessageFace("stein_fc2",0,0,2,10)
  ShowMessage("\\n<Promestein (Affection:\\V[3041])>いえ、違いますけど……")
  JumpToLabel("メニュー")
  DefineLabel("108")
  ShowMessageFace("wakame_fc1",0,0,2,11)
  ShowMessage("\\n<Wakame (Affection:\\V[3114])>一緒に、おなべの中に入ろう…… いいダシがとれるんだって……")
  ShowMessageFace("kai_fc1",2,0,2,12)
  ShowMessage("\\n<Shelly (Affection:\\V[3108])>私達、お味噌汁にされてしまってもいいんですか……？")
  If(4,102,0)
   ShowMessageFace("youko_fc1",0,0,2,13)
   ShowMessage("\\n<Kitsu (Affection:\\V[3102])>あっ、おあげも入れていい？")
   ShowMessageFace("kai_fc1",0,0,2,14)
   ShowMessage("\\n<Shelly (Affection:\\V[3108])>では、きつね汁にしましょうか……")
   0()
  EndIf()
  JumpToLabel("メニュー")
  DefineLabel("115")
  ShowMessageFace("wakame_fc1",1,0,2,15)
  ShowMessage("\\n<Wakame (Affection:\\V[3114])>くらげちゃん、ゆらゆら……")
  ShowMessageFace("kurage_fc1",0,0,2,16)
  ShowMessage("\\n<Kurage (Affection:\\V[3115])>わかめちゃん、ふらふら……")
  ShowMessageFace("wakame_fc1",1,0,2,17)
  ShowMessage("\\n<Wakame (Affection:\\V[3114])>いっしょにおどろう、ゆらゆらゆらり……")
  ShowMessageFace("kurage_fc1",0,0,2,18)
  ShowMessage("\\n<Kurage (Affection:\\V[3115])>ふらふら、ふらり……")
  JumpToLabel("メニュー")
  DefineLabel("メニュー")
  StartLoop()
   355("unlimited_choices(11, [\"Give presents\",")
   655("\"Add to party\",")
   655("\"View present list\",\"Request\",")
   655("\"Never mind\"])")
   If(1,11,0,0,0)
    355("present_start(114)")
    0()
   EndIf()
   If(1,11,0,1,0)
    PictureClear(5)
    355("move_actor_ex(114)")
    EndEventProcessing()
    0()
   EndIf()
   If(1,11,0,2,0)
    ShowMessageFace("",0,0,2,19)
    ShowMessage("Affection   10:水石")
    ShowMessage("Affection  100:緊縛の縄")
    ShowMessage("Affection  500:底力のタトゥー")
    ShowMessage("Affection 2000:祓水")
    0()
   EndIf()
   If(1,11,0,3,0)
    PictureClear(5)
    ShowMessageFace("",0,0,2,20)
    ShowMessage("Ask her for what? (Affection:\\V[3114])")
    ShowChoices(strings("Semen Squeezing Seaweed(Affection:10)","Never mind"),2)
    IfPlayerPicksChoice(0,null)
     If(1,3114,0,10,1)
      355("call_novel_scene(4361)")
      EndEventProcessing()
      0()
     Else()
      ShowMessageFace("wakame_fc1",0,0,2,21)
      ShowMessage("\\n<Wakame (Affection:\\V[3114])>ゆらゆらゆら……")
      0()
     EndIf()
     0()
    IfPlayerPicksChoice(1,null)
     0()
    404()
    0()
   EndIf()
   If(1,11,0,4,1)
    PictureClear(5)
    EndEventProcessing()
    0()
   EndIf()
   0()
  EndLoop()
  0()
 PAGE   2
  // condition: party contains actor #114
  0()



EVENT   16
 PAGE   1
  // condition: switch 1099 is ON
  PictureDisplay(5,"80_namazu_st01",0,0,0,0,100,100,0,0)
  PictureMove(5,null,0,0,0,0,100,100,255,0,30,true)
  If(1,3099,0,10,1)
   If(1,4099,0,0,0)
    ChangeVariable(4099,4099,0,0,1)
    ShowMessageFace("namazu_fc1",0,0,2,1)
    ShowMessage("\\n<Gigi (Affection:\\V[3099])>ほれ、これをやろう。 たまには儂からぷれぜんとじゃ。")
    250(bytes(0x04,0x08,0x6f,0x3a,0x0c,0x52,0x50,0x47,0x3a,0x3a,0x53,0x45,0x08,0x3a,0x0a,0x40,0x6e,0x61,0x6d,0x65,0x49,0x22,0x0a,0x49,0x74,0x65,0x6d,0x31,0x06,0x3a,0x06,0x45,0x54,0x3a,0x0b,0x40,0x70,0x69,0x74,0x63,0x68,0x69,0x69,0x3a,0x0c,0x40,0x76,0x6f,0x6c,0x75,0x6d,0x65,0x69,0x55))
    ChangeInventory_Item(67,0,0,1)
    0()
   EndIf()
   0()
  EndIf()
  If(1,3099,0,100,1)
   If(1,4099,0,1,0)
    ChangeVariable(4099,4099,0,0,2)
    ShowMessageFace("namazu_fc1",0,0,2,2)
    ShowMessage("\\n<Gigi (Affection:\\V[3099])>ほれ、これをやろう。 たまには儂からぷれぜんとじゃ。")
    250(bytes(0x04,0x08,0x6f,0x3a,0x0c,0x52,0x50,0x47,0x3a,0x3a,0x53,0x45,0x08,0x3a,0x0a,0x40,0x6e,0x61,0x6d,0x65,0x49,0x22,0x0a,0x49,0x74,0x65,0x6d,0x31,0x06,0x3a,0x06,0x45,0x54,0x3a,0x0b,0x40,0x70,0x69,0x74,0x63,0x68,0x69,0x69,0x3a,0x0c,0x40,0x76,0x6f,0x6c,0x75,0x6d,0x65,0x69,0x55))
    ChangeInventoryArmor(1081,0,0,1,false)
    0()
   EndIf()
   0()
  EndIf()
  If(1,3099,0,500,1)
   If(1,4099,0,2,0)
    ChangeVariable(4099,4099,0,0,3)
    ShowMessageFace("namazu_fc1",0,0,2,3)
    ShowMessage("\\n<Gigi (Affection:\\V[3099])>ほれ、これをやろう。 たまには儂からぷれぜんとじゃ。")
    250(bytes(0x04,0x08,0x6f,0x3a,0x0c,0x52,0x50,0x47,0x3a,0x3a,0x53,0x45,0x08,0x3a,0x0a,0x40,0x6e,0x61,0x6d,0x65,0x49,0x22,0x0a,0x49,0x74,0x65,0x6d,0x31,0x06,0x3a,0x06,0x45,0x54,0x3a,0x0b,0x40,0x70,0x69,0x74,0x63,0x68,0x69,0x69,0x3a,0x0c,0x40,0x76,0x6f,0x6c,0x75,0x6d,0x65,0x69,0x55))
    ChangeInventoryArmor(1249,0,0,1,false)
    0()
   EndIf()
   0()
  EndIf()
  If(1,3099,0,2000,1)
   If(1,4099,0,3,0)
    ChangeVariable(4099,4099,0,0,4)
    ShowMessageFace("namazu_fc1",0,0,2,4)
    ShowMessage("\\n<Gigi (Affection:\\V[3099])>ほれ、これをやろう。 たまには儂からぷれぜんとじゃ。")
    250(bytes(0x04,0x08,0x6f,0x3a,0x0c,0x52,0x50,0x47,0x3a,0x3a,0x53,0x45,0x08,0x3a,0x0a,0x40,0x6e,0x61,0x6d,0x65,0x49,0x22,0x0a,0x49,0x74,0x65,0x6d,0x31,0x06,0x3a,0x06,0x45,0x54,0x3a,0x0b,0x40,0x70,0x69,0x74,0x63,0x68,0x69,0x69,0x3a,0x0c,0x40,0x76,0x6f,0x6c,0x75,0x6d,0x65,0x69,0x55))
    ChangeInventoryArmor(1501,0,0,1,false)
    0()
   EndIf()
   0()
  EndIf()
  355("actor_label_jump")
  ShowMessageFace("namazu_fc1",0,0,2,5)
  ShowMessage("\\n<Gigi (Affection:\\V[3099])>年寄りだからといって、甘く見るでないぞ。 儂はまだまだ現役じゃからのう……")
  JumpToLabel("メニュー")
  DefineLabel("55")
  ShowMessageFace("name_fc1",2,0,2,6)
  ShowMessage("\\n<Melk (Affection:\\V[3055])>世界は広いのね。 魚の中にも、ヌル友がいるなんて……")
  ShowMessageFace("namazu_fc1",0,0,2,7)
  ShowMessage("\\n<Gigi (Affection:\\V[3099])>ま、まあ……よろしくのう。")
  ShowMessageFace("name_fc1",2,0,2,8)
  ShowMessage("\\n<Melk (Affection:\\V[3055])>あなたの住処にも、遊びに行っていい……？")
  ShowMessageFace("namazu_fc1",2,0,2,9)
  ShowMessage("\\n<Gigi (Affection:\\V[3099])>やめとけ、海じゃから溶けるぞ……")
  JumpToLabel("メニュー")
  DefineLabel("117")
  ShowMessageFace("namazu_fc1",0,0,2,10)
  ShowMessage("\\n<Gigi (Affection:\\V[3099])>ほう…… これまた、お互い人魚のはぐれ者じゃのう。")
  ShowMessageFace("ankou_fc1",0,0,2,11)
  ShowMessage("\\n<Anko (Affection:\\V[3117])>はぐれ……？")
  ShowMessageFace("namazu_fc1",0,0,2,12)
  ShowMessage("\\n<Gigi (Affection:\\V[3099])>まあ気にするな……")
  ShowMessageFace("ankou_fc1",0,0,2,13)
  ShowMessage("\\n<Anko (Affection:\\V[3117])>……………………")
  ShowMessageFace("namazu_fc1",2,0,2,14)
  ShowMessage("\\n<Gigi (Affection:\\V[3099])>疑似餌を儂の目の前でふよふよさせるな。 儂を食うつもりか……？")
  JumpToLabel("メニュー")
  DefineLabel("118")
  ShowMessageFace("meia_fc1",1,0,2,15)
  ShowMessage("\\n<Meia (Affection:\\V[3118])>あら、こんにちはナマズさん……")
  ShowMessageFace("namazu_fc1",0,0,2,16)
  ShowMessage("\\n<Gigi (Affection:\\V[3099])>おお、ナタリアポートの人魚か。 あの町はいいのう、儂もあそこで隠居しようか……")
  ShowMessageFace("meia_fc1",2,0,2,17)
  ShowMessage("\\n<Meia (Affection:\\V[3118])>まだ隠居なんて歳じゃないでしょう。 人魚たる者、800年は現役ですよ。")
  ShowMessageFace("namazu_fc1",0,0,2,18)
  ShowMessage("\\n<Gigi (Affection:\\V[3099])>うむ、当分はがんばるか…… ところで人間は何歳まで現役だと思う？")
  ShowMessageFace("meia_fc1",3,0,2,19)
  ShowMessage("\\n<Meia (Affection:\\V[3118])>えっ？　12歳くらいでしょうか……？")
  JumpToLabel("メニュー")
  DefineLabel("メニュー")
  StartLoop()
   355("unlimited_choices(11, [\"Give presents\",")
   655("\"Add to party\",")
   655("\"View present list\",\"Request\",")
   655("\"Never mind\"])")
   If(1,11,0,0,0)
    355("present_start(99)")
    0()
   EndIf()
   If(1,11,0,1,0)
    PictureClear(5)
    355("move_actor_ex(99)")
    EndEventProcessing()
    0()
   EndIf()
   If(1,11,0,2,0)
    ShowMessageFace("",0,0,2,20)
    ShowMessage("Affection   10:土石")
    ShowMessage("Affection  100:黒帯")
    ShowMessage("Affection  500:雷の書")
    ShowMessage("Affection 2000:雷のペンダント")
    0()
   EndIf()
   If(1,11,0,3,0)
    PictureClear(5)
    ShowMessageFace("",0,0,2,21)
    ShowMessage("Ask her for what? (Affection:\\V[3099])")
    ShowChoices(strings("Paizuri(Affection:10)","Never mind"),2)
    IfPlayerPicksChoice(0,null)
     If(1,3099,0,10,1)
      355("call_novel_scene(4286)")
      EndEventProcessing()
      0()
     Else()
      ShowMessageFace("namazu_fc1",2,0,2,22)
      ShowMessage("\\n<Gigi (Affection:\\V[3099])>今日はそういう気分ではないのじゃ……")
      0()
     EndIf()
     0()
    IfPlayerPicksChoice(1,null)
     0()
    404()
    0()
   EndIf()
   If(1,11,0,4,1)
    PictureClear(5)
    EndEventProcessing()
    0()
   EndIf()
   0()
  EndLoop()
  0()
 PAGE   2
  // condition: party contains actor #99
  0()



EVENT   7
 PAGE   1
  // condition: switch 1542 is ON
  PictureDisplay(5,"80_domeima_st01",0,0,0,0,100,100,0,0)
  PictureMove(5,null,0,0,0,0,100,100,255,0,30,true)
  If(1,3542,0,10,1)
   If(1,4542,0,0,0)
    ChangeVariable(4542,4542,0,0,1)
    ShowMessageFace("domeima_fc1",0,0,2,1)
    ShowMessage("\\n<Domaimer (Affection:\\V[3542])>水を……")
    250(bytes(0x04,0x08,0x6f,0x3a,0x0c,0x52,0x50,0x47,0x3a,0x3a,0x53,0x45,0x08,0x3a,0x0a,0x40,0x6e,0x61,0x6d,0x65,0x49,0x22,0x0a,0x49,0x74,0x65,0x6d,0x31,0x06,0x3a,0x06,0x45,0x54,0x3a,0x0b,0x40,0x70,0x69,0x74,0x63,0x68,0x69,0x69,0x3a,0x0c,0x40,0x76,0x6f,0x6c,0x75,0x6d,0x65,0x69,0x55))
    ChangeInventory_Item(322,0,0,1)
    0()
   EndIf()
   0()
  EndIf()
  If(1,3542,0,100,1)
   If(1,4542,0,1,0)
    ChangeVariable(4542,4542,0,0,2)
    ShowMessageFace("domeima_fc1",0,0,2,2)
    ShowMessage("\\n<Domaimer (Affection:\\V[3542])>水を……")
    250(bytes(0x04,0x08,0x6f,0x3a,0x0c,0x52,0x50,0x47,0x3a,0x3a,0x53,0x45,0x08,0x3a,0x0a,0x40,0x6e,0x61,0x6d,0x65,0x49,0x22,0x0a,0x49,0x74,0x65,0x6d,0x31,0x06,0x3a,0x06,0x45,0x54,0x3a,0x0b,0x40,0x70,0x69,0x74,0x63,0x68,0x69,0x69,0x3a,0x0c,0x40,0x76,0x6f,0x6c,0x75,0x6d,0x65,0x69,0x55))
    ChangeInventoryArmor(1147,0,0,1,false)
    0()
   EndIf()
   0()
  EndIf()
  If(1,3542,0,500,1)
   If(1,4542,0,2,0)
    ChangeVariable(4542,4542,0,0,3)
    ShowMessageFace("domeima_fc1",0,0,2,3)
    ShowMessage("\\n<Domaimer (Affection:\\V[3542])>水を……")
    250(bytes(0x04,0x08,0x6f,0x3a,0x0c,0x52,0x50,0x47,0x3a,0x3a,0x53,0x45,0x08,0x3a,0x0a,0x40,0x6e,0x61,0x6d,0x65,0x49,0x22,0x0a,0x49,0x74,0x65,0x6d,0x31,0x06,0x3a,0x06,0x45,0x54,0x3a,0x0b,0x40,0x70,0x69,0x74,0x63,0x68,0x69,0x69,0x3a,0x0c,0x40,0x76,0x6f,0x6c,0x75,0x6d,0x65,0x69,0x55))
    ChangeInventoryArmor(1167,0,0,1,false)
    0()
   EndIf()
   0()
  EndIf()
  If(1,3542,0,2000,1)
   If(1,4542,0,3,0)
    ChangeVariable(4542,4542,0,0,4)
    ShowMessageFace("domeima_fc1",0,0,2,4)
    ShowMessage("\\n<Domaimer (Affection:\\V[3542])>水を……")
    250(bytes(0x04,0x08,0x6f,0x3a,0x0c,0x52,0x50,0x47,0x3a,0x3a,0x53,0x45,0x08,0x3a,0x0a,0x40,0x6e,0x61,0x6d,0x65,0x49,0x22,0x0a,0x49,0x74,0x65,0x6d,0x31,0x06,0x3a,0x06,0x45,0x54,0x3a,0x0b,0x40,0x70,0x69,0x74,0x63,0x68,0x69,0x69,0x3a,0x0c,0x40,0x76,0x6f,0x6c,0x75,0x6d,0x65,0x69,0x55))
    ChangeInventoryArmor(1109,0,0,1,false)
    0()
   EndIf()
   0()
  EndIf()
  355("actor_label_jump")
  ShowMessageFace("domeima_fc1",0,0,2,5)
  ShowMessage("\\n<Domaimer (Affection:\\V[3542])>み……水……")
  JumpToLabel("メニュー")
  DefineLabel("61")
  ShowMessageFace("domeima_fc1",0,0,2,6)
  ShowMessage("\\n<Domaimer (Affection:\\V[3542])>み……水……")
  ShowMessageFace("mimizu_fc1",2,0,2,7)
  ShowMessage("\\n<Mimi (Affection:\\V[3061])>しっかりしなさい、ミミズならここにいるわ！")
  ShowMessageFace("domeima_fc1",0,0,2,8)
  ShowMessage("\\n<Domaimer (Affection:\\V[3542])>水を……")
  ShowMessageFace("mimizu_fc1",1,0,2,9)
  ShowMessage("\\n<Mimi (Affection:\\V[3061])>ああ、水が飲みたかったのね。 私の粘液でいいかしら……？")
  ShowMessageFace("domeima_fc1",0,0,2,10)
  ShowMessage("\\n<Domaimer (Affection:\\V[3542])>んぐ……粘度、高すぎ…… ごぶ、ぶぶぶぶぼぼぼぼぼ……")
  ShowMessageFace("mimizu_fc1",2,0,2,11)
  ShowMessage("\\n<Mimi (Affection:\\V[3061])>きゃーっ！　誰か！　み、水～！！")
  JumpToLabel("メニュー")
  DefineLabel("118")
  ShowMessageFace("domeima_fc1",0,0,2,12)
  ShowMessage("\\n<Domaimer (Affection:\\V[3542])>み……水……")
  ShowMessageFace("meia_fc1",0,0,2,13)
  ShowMessage("\\n<Meia (Affection:\\V[3118])>あら、ずいぶんと珍しい人魚さん。 はい、水をどうぞ……")
  ShowMessageFace("domeima_fc1",0,0,2,14)
  ShowMessage("\\n<Domaimer (Affection:\\V[3542])>助かりました。 では竜宮城に招待しましょう……")
  ShowMessageFace("meia_fc1",2,0,2,15)
  ShowMessage("\\n<Meia (Affection:\\V[3118])>恩を仇で返すような事、いけませんよ……")
  ShowMessageFace("sonia_fc4",0,0,2,16)
  ShowMessage("\\n<Sonya>（ボケばっかりで、ツッコミ不在……)")
  JumpToLabel("メニュー")
  DefineLabel("540")
  ShowMessageFace("domeima_fc1",0,0,2,17)
  ShowMessage("\\n<Domaimer (Affection:\\V[3542])>み……水……")
  ShowMessageFace("amira_fc1",0,0,2,18)
  ShowMessage("\\n<Amira (Affection:\\V[3540])>か、金……")
  ShowMessageFace("domeima_fc1",0,0,2,19)
  ShowMessage("\\n<Domaimer (Affection:\\V[3542])>水を……ぐふっ！")
  ShowMessageFace("amira_fc1",0,0,2,20)
  ShowMessage("\\n<Amira (Affection:\\V[3540])>金を……ぐふっ！")
  ShowMessageFace("domeima_fc1",0,0,2,21)
  ShowMessage("\\n<Domaimer (Affection:\\V[3542])>真似しないでもらえる？")
  ShowMessageFace("amira_fc1",1,0,2,22)
  ShowMessage("\\n<Amira (Affection:\\V[3540])>うぉっ！　しゃべったーっ！？")
  JumpToLabel("メニュー")
  DefineLabel("541")
  ShowMessageFace("piha_fc1",0,0,2,23)
  ShowMessage("\\n<Pyhar (Affection:\\V[3541])>あらドーメイマちゃん、元気かしら～♪")
  ShowMessageFace("domeima_fc1",0,0,2,24)
  ShowMessage("\\n<Domaimer (Affection:\\V[3542])>み……水……")
  ShowMessageFace("piha_fc1",0,0,2,25)
  ShowMessage("\\n<Pyhar (Affection:\\V[3541])>（そう言えば、お寿司が食べたいわね……)")
  ShowMessageFace("domeima_fc1",0,0,2,26)
  ShowMessage("\\n<Domaimer (Affection:\\V[3542])>（焼き鳥が食べたい……)")
  JumpToLabel("メニュー")
  DefineLabel("メニュー")
  StartLoop()
   355("unlimited_choices(11, [\"Give presents\",")
   655("\"Add to party\",")
   655("\"View present list\",\"Never mind\"])")
   If(1,11,0,0,0)
    355("present_start(542)")
    0()
   EndIf()
   If(1,11,0,1,0)
    PictureClear(5)
    355("move_actor_ex(542)")
    EndEventProcessing()
    0()
   EndIf()
   If(1,11,0,2,0)
    ShowMessageFace("",0,0,2,27)
    ShowMessage("Affection   10:さかな")
    ShowMessage("Affection  100:隠遁のシール")
    ShowMessage("Affection  500:遺言状")
    ShowMessage("Affection 2000:オンリー魂")
    0()
   EndIf()
   If(1,11,0,3,1)
    PictureClear(5)
    EndEventProcessing()
    0()
   EndIf()
   0()
  EndLoop()
  0()
 PAGE   2
  // condition: party contains actor #542
  0()



EVENT   5
 PAGE   1
  // condition: switch 1076 is ON
  PictureDisplay(5,"80_syuree_st01",0,0,0,0,100,100,0,0)
  PictureMove(5,null,0,0,0,0,100,100,255,0,30,true)
  If(1,3076,0,10,1)
   If(1,4076,0,0,0)
    ChangeVariable(4076,4076,0,0,1)
    ShowMessageFace("syuree_fc1",0,0,2,1)
    ShowMessage("\\n<Sully (Affection:\\V[3076])>変なのひろったよ。 いらないから、あげる！")
    250(bytes(0x04,0x08,0x6f,0x3a,0x0c,0x52,0x50,0x47,0x3a,0x3a,0x53,0x45,0x08,0x3a,0x0a,0x40,0x6e,0x61,0x6d,0x65,0x49,0x22,0x0a,0x49,0x74,0x65,0x6d,0x31,0x06,0x3a,0x06,0x45,0x54,0x3a,0x0b,0x40,0x70,0x69,0x74,0x63,0x68,0x69,0x69,0x3a,0x0c,0x40,0x76,0x6f,0x6c,0x75,0x6d,0x65,0x69,0x55))
    ChangeInventory_Item(71,0,0,1)
    0()
   EndIf()
   0()
  EndIf()
  If(1,3076,0,100,1)
   If(1,4076,0,1,0)
    ChangeVariable(4076,4076,0,0,2)
    ShowMessageFace("syuree_fc1",0,0,2,2)
    ShowMessage("\\n<Sully (Affection:\\V[3076])>変なのひろったよ。 いらないから、あげる！")
    250(bytes(0x04,0x08,0x6f,0x3a,0x0c,0x52,0x50,0x47,0x3a,0x3a,0x53,0x45,0x08,0x3a,0x0a,0x40,0x6e,0x61,0x6d,0x65,0x49,0x22,0x0a,0x49,0x74,0x65,0x6d,0x31,0x06,0x3a,0x06,0x45,0x54,0x3a,0x0b,0x40,0x70,0x69,0x74,0x63,0x68,0x69,0x69,0x3a,0x0c,0x40,0x76,0x6f,0x6c,0x75,0x6d,0x65,0x69,0x55))
    ChangeInventoryArmor(274,0,0,1,false)
    0()
   EndIf()
   0()
  EndIf()
  If(1,3076,0,500,1)
   If(1,4076,0,2,0)
    ChangeVariable(4076,4076,0,0,3)
    ShowMessageFace("syuree_fc1",0,0,2,3)
    ShowMessage("\\n<Sully (Affection:\\V[3076])>変なのひろったよ。 いらないから、あげる！")
    250(bytes(0x04,0x08,0x6f,0x3a,0x0c,0x52,0x50,0x47,0x3a,0x3a,0x53,0x45,0x08,0x3a,0x0a,0x40,0x6e,0x61,0x6d,0x65,0x49,0x22,0x0a,0x49,0x74,0x65,0x6d,0x31,0x06,0x3a,0x06,0x45,0x54,0x3a,0x0b,0x40,0x70,0x69,0x74,0x63,0x68,0x69,0x69,0x3a,0x0c,0x40,0x76,0x6f,0x6c,0x75,0x6d,0x65,0x69,0x55))
    ChangeInventoryArmor(1584,0,0,1,false)
    0()
   EndIf()
   0()
  EndIf()
  If(1,3076,0,2000,1)
   If(1,4076,0,3,0)
    ChangeVariable(4076,4076,0,0,4)
    ShowMessageFace("syuree_fc1",0,0,2,4)
    ShowMessage("\\n<Sully (Affection:\\V[3076])>変なのひろったよ。 いらないから、あげる！")
    250(bytes(0x04,0x08,0x6f,0x3a,0x0c,0x52,0x50,0x47,0x3a,0x3a,0x53,0x45,0x08,0x3a,0x0a,0x40,0x6e,0x61,0x6d,0x65,0x49,0x22,0x0a,0x49,0x74,0x65,0x6d,0x31,0x06,0x3a,0x06,0x45,0x54,0x3a,0x0b,0x40,0x70,0x69,0x74,0x63,0x68,0x69,0x69,0x3a,0x0c,0x40,0x76,0x6f,0x6c,0x75,0x6d,0x65,0x69,0x55))
    ChangeInventoryArmor(1165,0,0,1,false)
    0()
   EndIf()
   0()
  EndIf()
  355("actor_label_jump")
  ShowMessageFace("syuree_fc1",0,0,2,5)
  ShowMessage("\\n<Sully (Affection:\\V[3076])>ねぇ、エビってなに？ あたしって、エビなの？")
  JumpToLabel("メニュー")
  DefineLabel("77")
  ShowMessageFace("syuree_fc1",0,0,2,6)
  ShowMessage("\\n<Sully (Affection:\\V[3076])>あっ、ジェイド型だー！ ねぇねぇ、げんき？")
  ShowMessageFace("jeid_fc1",0,0,2,7)
  ShowMessage("\\n<Jaide (Affection:\\V[3077])>こんにちは、シュリー型。 作動に問題はありません……")
  ShowMessageFace("syuree_fc1",0,0,2,8)
  ShowMessage("\\n<Sully (Affection:\\V[3076])>ジェイド型って、いつもテンション低めだよね。 やっぱり、キカイだから？")
  ShowMessageFace("jeid_fc1",0,0,2,9)
  ShowMessage("\\n<Jaide (Affection:\\V[3077])>オプションにより、テンションの高い性格に変更可能です。 実行しますか？")
  ShowMessageFace("syuree_fc1",2,0,2,10)
  ShowMessage("\\n<Sully (Affection:\\V[3076])>やめとく……なんだか、こわそうだし。")
  JumpToLabel("メニュー")
  DefineLabel("98")
  ShowMessageFace("syuree_fc1",0,0,2,11)
  ShowMessage("\\n<Sully (Affection:\\V[3076])>わっ、カニだ～！")
  ShowMessageFace("minikani_fc1",0,0,2,12)
  ShowMessage("\\n<Amy (Affection:\\V[3098])>エビだ～！")
  ShowMessageFace("syuree_fc1",1,0,2,13)
  ShowMessage("\\n<Sully (Affection:\\V[3076])>あわあわあわ……")
  ShowMessageFace("minikani_fc1",0,0,2,14)
  ShowMessage("\\n<Amy (Affection:\\V[3098])>すごい！ エビなのに、アワが出せるの！？")
  ShowMessageFace("syuree_fc1",1,0,2,15)
  ShowMessage("\\n<Sully (Affection:\\V[3076])>えへへっ！　あわあわあわ……")
  ShowMessageFace("minikani_fc1",0,0,2,16)
  ShowMessage("\\n<Amy (Affection:\\V[3098])>あわあわあわ……")
  JumpToLabel("メニュー")
  DefineLabel("127")
  ShowMessageFace("syuree_fc1",2,0,2,17)
  ShowMessage("\\n<Sully (Affection:\\V[3076])>ゴキブリ！")
  ShowMessageFace("littlebug_fc1",2,0,2,18)
  ShowMessage("\\n<Lippy (Affection:\\V[3127])>エビ！")
  ShowMessageFace("syuree_fc1",2,0,2,19)
  ShowMessage("\\n<Sully (Affection:\\V[3076])>ゴキブリ！　ゴキブリ！")
  ShowMessageFace("littlebug_fc1",2,0,2,20)
  ShowMessage("\\n<Lippy (Affection:\\V[3127])>エビエビエビー！")
  ShowMessageFace("sonia_fc2",5,0,2,21)
  ShowMessage("\\n<Sonya>こら、ケンカしないの！")
  JumpToLabel("メニュー")
  DefineLabel("メニュー")
  StartLoop()
   355("unlimited_choices(11, [\"Give presents\",")
   655("\"Add to party\",")
   655("\"View present list\",\"Request\",")
   655("\"Never mind\"])")
   If(1,11,0,0,0)
    355("present_start(76)")
    0()
   EndIf()
   If(1,11,0,1,0)
    PictureClear(5)
    355("move_actor_ex(76)")
    EndEventProcessing()
    0()
   EndIf()
   If(1,11,0,2,0)
    ShowMessageFace("",0,0,2,22)
    ShowMessage("Affection   10:水石")
    ShowMessage("Affection  100:軽量シールド")
    ShowMessage("Affection  500:ラプチャチェック")
    ShowMessage("Affection 2000:幸福の袋")
    0()
   EndIf()
   If(1,11,0,3,0)
    PictureClear(5)
    ShowMessageFace("",0,0,2,23)
    ShowMessage("Ask her for what? (Affection:\\V[3076])")
    ShowChoices(strings("洗い責め(Affection:10)","Reverse rape(Affection:100)","Never mind"),3)
    IfPlayerPicksChoice(0,null)
     If(1,3076,0,10,1)
      355("call_novel_scene(4171)")
      EndEventProcessing()
      0()
     Else()
      ShowMessageFace("syuree_fc1",3,0,2,24)
      ShowMessage("\\n<Sully (Affection:\\V[3076])>疲れてるから、泡が出ないの…… また今度ね。")
      0()
     EndIf()
     0()
    IfPlayerPicksChoice(1,null)
     If(1,3076,0,100,1)
      355("call_novel_scene(4172)")
      EndEventProcessing()
      0()
     Else()
      ShowMessageFace("syuree_fc1",3,0,2,25)
      ShowMessage("\\n<Sully (Affection:\\V[3076])>疲れてるから、泡が出ないの…… また今度ね。")
      0()
     EndIf()
     0()
    IfPlayerPicksChoice(2,null)
     0()
    404()
    0()
   EndIf()
   If(1,11,0,4,1)
    PictureClear(5)
    EndEventProcessing()
    0()
   EndIf()
   0()
  EndLoop()
  0()
 PAGE   2
  // condition: party contains actor #76
  0()
