﻿


EVENT   1
 PAGE   1
  0()



EVENT   2
 PAGE   1
  ChangeSwitch(11,11,1)
  222()
  ShowMessageFace("ruka_fc1",0,0,2,1)
  ShowMessage("\\n<Luka>......")
  ShowMessageFace("ruka_fc1",0,0,2,2)
  ShowMessage("\\n<Luka>Was that a dream...? Or maybe...")
  ShowMessageFace("",0,0,2,3)
  ShowMessage("I remembered it as if I experienced it myself. I shouldn't have remembered anything like that, and yet...")
  ShowMessageFace("ruka_fc1",0,0,2,4)
  ShowMessage("\\n<Luka>To think Mom was an angel...")
  ShowMessageFace("",0,0,2,5)
  ShowMessage("Upon learning the truth, hidden power awakens inside Luka...")
  250(bytes(0x04,0x08,0x6f,0x3a,0x0c,0x52,0x50,0x47,0x3a,0x3a,0x53,0x45,0x08,0x3a,0x0a,0x40,0x6e,0x61,0x6d,0x65,0x49,0x22,0x0b,0x53,0x61,0x69,0x6e,0x74,0x37,0x06,0x3a,0x06,0x45,0x54,0x3a,0x0b,0x40,0x70,0x69,0x74,0x63,0x68,0x69,0x69,0x3a,0x0c,0x40,0x76,0x6f,0x6c,0x75,0x6d,0x65,0x69,0x55))
  321(1,362)
  ShowMessageFace("",0,0,2,6)
  ShowMessage("Luka has become a Lowly Angel!")
  Wait(30)
  205(1,bytes(0x04,0x08,0x6f,0x3a,0x13,0x52,0x50,0x47,0x3a,0x3a,0x4d,0x6f,0x76,0x65,0x52,0x6f,0x75,0x74,0x65,0x09,0x3a,0x0c,0x40,0x72,0x65,0x70,0x65,0x61,0x74,0x46,0x3a,0x0f,0x40,0x73,0x6b,0x69,0x70,0x70,0x61,0x62,0x6c,0x65,0x46,0x3a,0x0a,0x40,0x77,0x61,0x69,0x74,0x54,0x3a,0x0a,0x40,0x6c,0x69,0x73,0x74,0x5b,0x08,0x6f,0x3a,0x15,0x52,0x50,0x47,0x3a,0x3a,0x4d,0x6f,0x76,0x65,0x43,0x6f,0x6d,0x6d,0x61,0x6e,0x64,0x07,0x3a,0x0a,0x40,0x63,0x6f,0x64,0x65,0x69,0x2a,0x3a,0x10,0x40,0x70,0x61,0x72,0x61,0x6d,0x65,0x74,0x65,0x72,0x73,0x5b,0x00,0x6f,0x3b,0x0a,0x07,0x3b,0x0b,0x69,0x08,0x3b,0x0c,0x5b,0x00,0x6f,0x3b,0x0a,0x07,0x3b,0x0b,0x69,0x00,0x3b,0x0c,0x5b,0x00))
  ShowMessageFace("ruka_fc1",0,0,2,7)
  ShowMessage("\\n<Luka>Still... what on earth is happening...?")
  ShowMessageFace("",0,0,2,8)
  ShowMessage("We were attacked by a Armored Berserker in the Forest of Spirits... I could remember being at wit's end and defeated.")
  ShowMessageFace("",0,0,2,9)
  ShowMessage("But how did we survive? Looks like there's not even a scratch remaining on my body...")
  241(bytes(0x04,0x08,0x6f,0x3a,0x0d,0x52,0x50,0x47,0x3a,0x3a,0x42,0x47,0x4d,0x08,0x3a,0x0a,0x40,0x6e,0x61,0x6d,0x65,0x49,0x22,0x14,0x73,0x63,0x65,0x6e,0x65,0x5f,0x65,0x70,0x69,0x6c,0x6f,0x67,0x75,0x65,0x32,0x06,0x3a,0x06,0x45,0x54,0x3a,0x0c,0x40,0x76,0x6f,0x6c,0x75,0x6d,0x65,0x69,0x69,0x3a,0x0b,0x40,0x70,0x69,0x74,0x63,0x68,0x69,0x69))
  ChangeSwitch(11,11,0)
  205(1,bytes(0x04,0x08,0x6f,0x3a,0x13,0x52,0x50,0x47,0x3a,0x3a,0x4d,0x6f,0x76,0x65,0x52,0x6f,0x75,0x74,0x65,0x09,0x3a,0x0c,0x40,0x72,0x65,0x70,0x65,0x61,0x74,0x46,0x3a,0x0f,0x40,0x73,0x6b,0x69,0x70,0x70,0x61,0x62,0x6c,0x65,0x46,0x3a,0x0a,0x40,0x77,0x61,0x69,0x74,0x46,0x3a,0x0a,0x40,0x6c,0x69,0x73,0x74,0x5b,0x07,0x6f,0x3a,0x15,0x52,0x50,0x47,0x3a,0x3a,0x4d,0x6f,0x76,0x65,0x43,0x6f,0x6d,0x6d,0x61,0x6e,0x64,0x07,0x3a,0x0a,0x40,0x63,0x6f,0x64,0x65,0x69,0x18,0x3a,0x10,0x40,0x70,0x61,0x72,0x61,0x6d,0x65,0x74,0x65,0x72,0x73,0x5b,0x00,0x6f,0x3b,0x0a,0x07,0x3b,0x0b,0x69,0x00,0x3b,0x0c,0x5b,0x00))
  205(3,bytes(0x04,0x08,0x6f,0x3a,0x13,0x52,0x50,0x47,0x3a,0x3a,0x4d,0x6f,0x76,0x65,0x52,0x6f,0x75,0x74,0x65,0x09,0x3a,0x0c,0x40,0x72,0x65,0x70,0x65,0x61,0x74,0x46,0x3a,0x0f,0x40,0x73,0x6b,0x69,0x70,0x70,0x61,0x62,0x6c,0x65,0x46,0x3a,0x0a,0x40,0x77,0x61,0x69,0x74,0x54,0x3a,0x0a,0x40,0x6c,0x69,0x73,0x74,0x5b,0x08,0x6f,0x3a,0x15,0x52,0x50,0x47,0x3a,0x3a,0x4d,0x6f,0x76,0x65,0x43,0x6f,0x6d,0x6d,0x61,0x6e,0x64,0x07,0x3a,0x0a,0x40,0x63,0x6f,0x64,0x65,0x69,0x06,0x3a,0x10,0x40,0x70,0x61,0x72,0x61,0x6d,0x65,0x74,0x65,0x72,0x73,0x5b,0x00,0x6f,0x3b,0x0a,0x07,0x3b,0x0b,0x69,0x06,0x3b,0x0c,0x5b,0x00,0x6f,0x3b,0x0a,0x07,0x3b,0x0b,0x69,0x00,0x3b,0x0c,0x5b,0x00))
  If(0,4,0)
   ShowMessageFace("alice_fc5",0,0,2,10)
   ShowMessage("\\n<Alice>...so you're awake. Looks like we were rescued by that self-proclaimed 17th.")
   ShowMessageFace("alice_fc5",3,0,2,11)
   ShowMessage("\\n<Alice>It seems like Nero was there too, but I lost my consciousness as well. To think we would be saved by such a bunch, how shameful...")
   0()
  EndIf()
  If(0,5,0)
   ShowMessageFace("iriasu_fc4",2,0,2,12)
   ShowMessage("\\n<Ilias>So you have awoken, Luka. It seems like we have been saved by Alipheese the 17th.")
   ShowMessageFace("iriasu_fc4",2,0,2,13)
   ShowMessage("\\n<Ilias>Apparently Nero was there as well, but I lost my consciousness as well and I don't know details. In any case, looks like those suspicious people have saved us.")
   0()
  EndIf()
  ShowMessageFace("ruka_fc1",0,0,2,14)
  ShowMessage("\\n<Luka>Is that so... we keep being saved by those people, aren't we.")
  If(0,4,0)
   ShowMessageFace("alice_fc5",3,0,2,15)
   ShowMessage("\\n<Alice>Although, we don't know what are they plotting. Also, what on earth was that Armored Berserker...?")
   ShowMessageFace("ruka_fc1",0,0,2,16)
   ShowMessage("\\n<Luka>I wonder, it was definitely not normal...")
   0()
  EndIf()
  If(0,5,0)
   ShowMessageFace("iriasu_fc4",2,0,2,17)
   ShowMessage("\\n<Ilias>But the fact is we don't know what are they plotting. And, why was Heinrich like that...?")
   ShowMessageFace("ruka_fc1",0,0,2,18)
   ShowMessage("\\n<Luka>Heinrich, you mean... the legendary hero, Heinrich?")
   ShowMessageFace("iriasu_fc4",5,0,2,19)
   ShowMessage("\\n<Ilias>No... it's nothing, I'm just talking to myself.")
   0()
  EndIf()
  ShowMessageFace("ruka_fc1",0,0,2,20)
  ShowMessage("\\n<Luka>But we managed to complete our objective. After all, I properly contracted with Sylph.")
  RunCommonEvent(306)
  221()
  242(1)
  Wait(120)
  211(1)
  216(0)
  281(1)
  ChangeVariable(21,21,0,0,2)
  ChangeVariable(22,22,0,0,236)
  ChangeVariable(23,23,0,0,261)
  TeleportPlayer(0,228,24,34,2,2)
  222()
  355("gain_medal(23)")
  EndEventProcessing()
  0()



EVENT   3
 PAGE   1
  // condition: switch 4 is ON
  // condition: switch 11 is ON
  0()
 PAGE   2
  // condition: switch 5 is ON
  // condition: switch 11 is ON
  0()
