﻿


EVENT   1
 PAGE   1
  0()



EVENT   2
 PAGE   1
  0()



EVENT   3
 PAGE   1
  0()



EVENT   4
 PAGE   1
  0()



EVENT   5
 PAGE   1
  0()



EVENT   6
 PAGE   1
  0()



EVENT   7
 PAGE   1
  0()



EVENT   8
 PAGE   1
  0()



EVENT   9
 PAGE   1
  0()



EVENT   10
 PAGE   1
  0()



EVENT   11
 PAGE   1
  0()



EVENT   12
 PAGE   1
  0()



EVENT   14
 PAGE   1
  0()



EVENT   15
 PAGE   1
  0()



EVENT   16
 PAGE   1
  0()



EVENT   17
 PAGE   1
  0()



EVENT   18
 PAGE   1
  0()



EVENT   19
 PAGE   1
  0()



EVENT   20
 PAGE   1
  0()



EVENT   13
 PAGE   1
  0()



EVENT   21
 PAGE   1
  // condition: switch 621 is ON
  241(bytes(0x04,0x08,0x6f,0x3a,0x0d,0x52,0x50,0x47,0x3a,0x3a,0x42,0x47,0x4d,0x08,0x3a,0x0a,0x40,0x6e,0x61,0x6d,0x65,0x49,0x22,0x0b,0x73,0x74,0x61,0x67,0x65,0x31,0x06,0x3a,0x06,0x45,0x54,0x3a,0x0c,0x40,0x76,0x6f,0x6c,0x75,0x6d,0x65,0x69,0x69,0x3a,0x0b,0x40,0x70,0x69,0x74,0x63,0x68,0x69,0x69))
  ShowMessageFace("mdg_fc1",0,0,2,1)
  ShowMessage("\\n<Ragora>みんな、今日は私のために集まってくれてありがとう！")
  ShowMessageFace("mdg_fc1",0,0,2,2)
  ShowMessage("\\n<Ragora>それじゃあ、歌います…… 『葉っぱひらひら』♪")
  ShowMessageFace("mdg_fc1",2,0,2,3)
  ShowMessage("\\n<Ragora>ひ　ゃ　ぁ　ぁ　ぁ　ぁ　ぁ　ぁ　ぁ　！　！　！")
  ShowMessageFace("",0,0,2,4)
  ShowMessage("\\n<Visitor A>うわぁー！！")
  ShowMessageFace("",0,0,2,5)
  ShowMessage("\\n<Visitor B>ぎゃぁぁぁ！！")
  ShowMessageFace("",0,0,2,6)
  ShowMessage("ステージは阿鼻叫喚だ！")
  Wait(30)
  221()
  242(1)
  Wait(60)
  211(1)
  281(1)
  TeleportPlayer(0,624,63,27,6,2)
  ChangeSwitch(2119,2119,0)
  222()
  ShowMessageFace("",0,0,2,7)
  ShowMessage("\\n<Manager>まだ、右腕に痺れが…… 耳栓効かないんですね……")
  If(2,"A",1)
   ChangeSelfSwitch("A",0)
   250(bytes(0x04,0x08,0x6f,0x3a,0x0c,0x52,0x50,0x47,0x3a,0x3a,0x53,0x45,0x08,0x3a,0x0a,0x40,0x6e,0x61,0x6d,0x65,0x49,0x22,0x0a,0x49,0x74,0x65,0x6d,0x31,0x06,0x3a,0x06,0x45,0x54,0x3a,0x0b,0x40,0x70,0x69,0x74,0x63,0x68,0x69,0x69,0x3a,0x0c,0x40,0x76,0x6f,0x6c,0x75,0x6d,0x65,0x69,0x55))
   ChangeInventoryArmor(1558,0,0,1,false)
   0()
  EndIf()
  ChangeSwitch(2119,2119,1)
  EndEventProcessing()
  0()



EVENT   23
 PAGE   1
  // condition: switch 622 is ON
  241(bytes(0x04,0x08,0x6f,0x3a,0x0d,0x52,0x50,0x47,0x3a,0x3a,0x42,0x47,0x4d,0x08,0x3a,0x0a,0x40,0x6e,0x61,0x6d,0x65,0x49,0x22,0x10,0x73,0x63,0x65,0x6e,0x65,0x5f,0x63,0x6f,0x6d,0x69,0x31,0x06,0x3a,0x06,0x45,0x54,0x3a,0x0c,0x40,0x76,0x6f,0x6c,0x75,0x6d,0x65,0x69,0x69,0x3a,0x0b,0x40,0x70,0x69,0x74,0x63,0x68,0x69,0x69))
  ShowMessageFace("hituzi_fc1",3,0,2,1)
  ShowMessage("\\n<Mary>うい～！　ひっく！")
  ShowMessageFace("hituzi_fc1",3,0,2,2)
  ShowMessage("\\n<Mary>ウェヒヒヒヒ！")
  ShowMessageFace("",0,0,2,3)
  ShowMessage("\\n<Visitor>……………………")
  ShowMessageFace("hituzi_fc1",3,0,2,4)
  ShowMessage("\\n<Mary>なに見てるのら～！")
  ShowMessageFace("hituzi_fc1",7,0,2,5)
  ShowMessage("\\n<Mary>ぐびぐびぐび……")
  ShowMessageFace("hituzi_fc1",3,0,2,6)
  ShowMessage("\\n<Mary>ウェヒヒヒヒ！")
  ShowMessageFace("",0,0,2,7)
  ShowMessage("\\n<Visitor>……………………")
  ChangeSwitch(31,31,0)
  205(32,bytes(0x04,0x08,0x6f,0x3a,0x13,0x52,0x50,0x47,0x3a,0x3a,0x4d,0x6f,0x76,0x65,0x52,0x6f,0x75,0x74,0x65,0x09,0x3a,0x0c,0x40,0x72,0x65,0x70,0x65,0x61,0x74,0x46,0x3a,0x0f,0x40,0x73,0x6b,0x69,0x70,0x70,0x61,0x62,0x6c,0x65,0x46,0x3a,0x0a,0x40,0x77,0x61,0x69,0x74,0x54,0x3a,0x0a,0x40,0x6c,0x69,0x73,0x74,0x5b,0x09,0x6f,0x3a,0x15,0x52,0x50,0x47,0x3a,0x3a,0x4d,0x6f,0x76,0x65,0x43,0x6f,0x6d,0x6d,0x61,0x6e,0x64,0x07,0x3a,0x0a,0x40,0x63,0x6f,0x64,0x65,0x69,0x06,0x3a,0x10,0x40,0x70,0x61,0x72,0x61,0x6d,0x65,0x74,0x65,0x72,0x73,0x5b,0x00,0x6f,0x3b,0x0a,0x07,0x3b,0x0b,0x69,0x06,0x3b,0x0c,0x5b,0x00,0x6f,0x3b,0x0a,0x07,0x3b,0x0b,0x69,0x06,0x3b,0x0c,0x5b,0x00,0x6f,0x3b,0x0a,0x07,0x3b,0x0b,0x69,0x00,0x3b,0x0c,0x5b,0x00))
  205(33,bytes(0x04,0x08,0x6f,0x3a,0x13,0x52,0x50,0x47,0x3a,0x3a,0x4d,0x6f,0x76,0x65,0x52,0x6f,0x75,0x74,0x65,0x09,0x3a,0x0c,0x40,0x72,0x65,0x70,0x65,0x61,0x74,0x46,0x3a,0x0f,0x40,0x73,0x6b,0x69,0x70,0x70,0x61,0x62,0x6c,0x65,0x46,0x3a,0x0a,0x40,0x77,0x61,0x69,0x74,0x54,0x3a,0x0a,0x40,0x6c,0x69,0x73,0x74,0x5b,0x07,0x6f,0x3a,0x15,0x52,0x50,0x47,0x3a,0x3a,0x4d,0x6f,0x76,0x65,0x43,0x6f,0x6d,0x6d,0x61,0x6e,0x64,0x07,0x3a,0x0a,0x40,0x63,0x6f,0x64,0x65,0x69,0x18,0x3a,0x10,0x40,0x70,0x61,0x72,0x61,0x6d,0x65,0x74,0x65,0x72,0x73,0x5b,0x00,0x6f,0x3b,0x0a,0x07,0x3b,0x0b,0x69,0x00,0x3b,0x0c,0x5b,0x00))
  ShowMessageFace("usagi_fc1",4,0,2,8)
  ShowMessage("\\n<Barnny>もう、またこんなところで酔っ払って……")
  ShowMessageFace("hituzi_fc1",3,0,2,9)
  ShowMessage("\\n<Mary>うさぎはガミガミうるさいのら……")
  ShowMessageFace("usagi_fc1",4,0,2,10)
  ShowMessage("\\n<Barnny>ほら、帰るわよ！")
  205(32,bytes(0x04,0x08,0x6f,0x3a,0x13,0x52,0x50,0x47,0x3a,0x3a,0x4d,0x6f,0x76,0x65,0x52,0x6f,0x75,0x74,0x65,0x09,0x3a,0x0c,0x40,0x72,0x65,0x70,0x65,0x61,0x74,0x46,0x3a,0x0f,0x40,0x73,0x6b,0x69,0x70,0x70,0x61,0x62,0x6c,0x65,0x46,0x3a,0x0a,0x40,0x77,0x61,0x69,0x74,0x46,0x3a,0x0a,0x40,0x6c,0x69,0x73,0x74,0x5b,0x0b,0x6f,0x3a,0x15,0x52,0x50,0x47,0x3a,0x3a,0x4d,0x6f,0x76,0x65,0x43,0x6f,0x6d,0x6d,0x61,0x6e,0x64,0x07,0x3a,0x0a,0x40,0x63,0x6f,0x64,0x65,0x69,0x2a,0x3a,0x10,0x40,0x70,0x61,0x72,0x61,0x6d,0x65,0x74,0x65,0x72,0x73,0x5b,0x00,0x6f,0x3b,0x0a,0x07,0x3b,0x0b,0x69,0x09,0x3b,0x0c,0x5b,0x00,0x6f,0x3b,0x0a,0x07,0x3b,0x0b,0x69,0x09,0x3b,0x0c,0x5b,0x00,0x6f,0x3b,0x0a,0x07,0x3b,0x0b,0x69,0x09,0x3b,0x0c,0x5b,0x00,0x6f,0x3b,0x0a,0x07,0x3b,0x0b,0x69,0x2c,0x3b,0x0c,0x5b,0x00,0x6f,0x3b,0x0a,0x07,0x3b,0x0b,0x69,0x00,0x3b,0x0c,0x5b,0x00))
  205(33,bytes(0x04,0x08,0x6f,0x3a,0x13,0x52,0x50,0x47,0x3a,0x3a,0x4d,0x6f,0x76,0x65,0x52,0x6f,0x75,0x74,0x65,0x09,0x3a,0x0c,0x40,0x72,0x65,0x70,0x65,0x61,0x74,0x46,0x3a,0x0f,0x40,0x73,0x6b,0x69,0x70,0x70,0x61,0x62,0x6c,0x65,0x46,0x3a,0x0a,0x40,0x77,0x61,0x69,0x74,0x54,0x3a,0x0a,0x40,0x6c,0x69,0x73,0x74,0x5b,0x0c,0x6f,0x3a,0x15,0x52,0x50,0x47,0x3a,0x3a,0x4d,0x6f,0x76,0x65,0x43,0x6f,0x6d,0x6d,0x61,0x6e,0x64,0x07,0x3a,0x0a,0x40,0x63,0x6f,0x64,0x65,0x69,0x2a,0x3a,0x10,0x40,0x70,0x61,0x72,0x61,0x6d,0x65,0x74,0x65,0x72,0x73,0x5b,0x00,0x6f,0x3b,0x0a,0x07,0x3b,0x0b,0x69,0x09,0x3b,0x0c,0x5b,0x00,0x6f,0x3b,0x0a,0x07,0x3b,0x0b,0x69,0x09,0x3b,0x0c,0x5b,0x00,0x6f,0x3b,0x0a,0x07,0x3b,0x0b,0x69,0x09,0x3b,0x0c,0x5b,0x00,0x6f,0x3b,0x0a,0x07,0x3b,0x0b,0x69,0x09,0x3b,0x0c,0x5b,0x00,0x6f,0x3b,0x0a,0x07,0x3b,0x0b,0x69,0x2c,0x3b,0x0c,0x5b,0x00,0x6f,0x3b,0x0a,0x07,0x3b,0x0b,0x69,0x00,0x3b,0x0c,0x5b,0x00))
  ChangeSwitch(31,31,1)
  ShowMessageFace("",0,0,2,11)
  ShowMessage("\\n<Visitor>……………………")
  Wait(30)
  221()
  242(1)
  Wait(60)
  211(1)
  281(1)
  TeleportPlayer(0,624,63,27,6,2)
  ChangeSwitch(2119,2119,0)
  222()
  ShowMessageFace("",0,0,2,12)
  ShowMessage("\\n<Manager>私も、少し酒を控えようかな…… いえいえ、こちらの事です。")
  If(2,"A",1)
   ChangeSelfSwitch("A",0)
   250(bytes(0x04,0x08,0x6f,0x3a,0x0c,0x52,0x50,0x47,0x3a,0x3a,0x53,0x45,0x08,0x3a,0x0a,0x40,0x6e,0x61,0x6d,0x65,0x49,0x22,0x0a,0x49,0x74,0x65,0x6d,0x31,0x06,0x3a,0x06,0x45,0x54,0x3a,0x0b,0x40,0x70,0x69,0x74,0x63,0x68,0x69,0x69,0x3a,0x0c,0x40,0x76,0x6f,0x6c,0x75,0x6d,0x65,0x69,0x55))
   ChangeInventoryArmor(1556,0,0,1,false)
   0()
  EndIf()
  ChangeSwitch(2119,2119,1)
  EndEventProcessing()
  0()



EVENT   24
 PAGE   1
  // condition: switch 623 is ON
  241(bytes(0x04,0x08,0x6f,0x3a,0x0d,0x52,0x50,0x47,0x3a,0x3a,0x42,0x47,0x4d,0x08,0x3a,0x0a,0x40,0x6e,0x61,0x6d,0x65,0x49,0x22,0x10,0x73,0x63,0x65,0x6e,0x65,0x5f,0x63,0x6f,0x6d,0x69,0x31,0x06,0x3a,0x06,0x45,0x54,0x3a,0x0c,0x40,0x76,0x6f,0x6c,0x75,0x6d,0x65,0x69,0x69,0x3a,0x0b,0x40,0x70,0x69,0x74,0x63,0x68,0x69,0x69))
  ShowMessageFace("sylph_fc1",7,0,2,1)
  ShowMessage("\\n<Sylph>ノームちゃんと漫才するよ～♪")
  ShowMessageFace("gnome_fc1",0,0,2,2)
  ShowMessage("\\n<Gnome>……………………")
  ShowMessageFace("sylph_fc1",7,0,2,3)
  ShowMessage("\\n<Sylph>隣の家に塀が出来たんだってね！")
  ShowMessageFace("sylph_fc1",7,0,2,4)
  ShowMessage("\\n<Sylph>……へ～！")
  ShowMessageFace("gnome_fc1",0,0,2,5)
  ShowMessage("\\n<Gnome>……………………")
  ShowMessageFace("",0,0,2,6)
  ShowMessage("\\n<Visitor>……………………")
  ShowMessageFace("sylph_fc1",7,0,2,7)
  ShowMessage("\\n<Sylph>隣の家に囲いが出来たんだってね！")
  ShowMessageFace("sylph_fc1",7,0,2,8)
  ShowMessage("\\n<Sylph>……かっこい～！")
  ShowMessageFace("gnome_fc1",0,0,2,9)
  ShowMessage("\\n<Gnome>……………………")
  ShowMessageFace("",0,0,2,10)
  ShowMessage("\\n<Visitor>……………………")
  ShowMessageFace("sylph_fc1",7,0,2,11)
  ShowMessage("\\n<Sylph>……いつもみたいにツッコミ入れないの？")
  ShowMessageFace("gnome_fc1",1,0,2,12)
  ShowMessage("\\n<Gnome>……………………")
  ShowMessageFace("sylph_fc1",7,0,2,13)
  ShowMessage("\\n<Sylph>あっ、スポットまぶしいんだ……")
  ShowMessageFace("gnome_fc1",1,0,2,14)
  ShowMessage("\\n<Gnome>……………………")
  ShowMessageFace("",0,0,2,15)
  ShowMessage("\\n<Visitor>……………………")
  ShowMessageFace("",0,0,2,16)
  ShowMessage("無為な時間が過ぎていく……")
  Wait(30)
  221()
  242(1)
  Wait(60)
  211(1)
  281(1)
  TeleportPlayer(0,624,63,27,6,2)
  ChangeSwitch(2119,2119,0)
  222()
  ShowMessageFace("",0,0,2,17)
  ShowMessage("\\n<Manager>なんだか切ない気分になるね。 次はネタを仕入れてきてくれよ！")
  ShowMessageFace("sylph_fc1",7,0,2,18)
  ShowMessage("\\n<Sylph>まかせて～！")
  If(2,"A",1)
   ChangeSelfSwitch("A",0)
   250(bytes(0x04,0x08,0x6f,0x3a,0x0c,0x52,0x50,0x47,0x3a,0x3a,0x53,0x45,0x08,0x3a,0x0a,0x40,0x6e,0x61,0x6d,0x65,0x49,0x22,0x0a,0x49,0x74,0x65,0x6d,0x31,0x06,0x3a,0x06,0x45,0x54,0x3a,0x0b,0x40,0x70,0x69,0x74,0x63,0x68,0x69,0x69,0x3a,0x0c,0x40,0x76,0x6f,0x6c,0x75,0x6d,0x65,0x69,0x55))
   ChangeInventoryArmor(1057,0,0,1,false)
   0()
  EndIf()
  ChangeSwitch(2119,2119,1)
  EndEventProcessing()
  0()



EVENT   25
 PAGE   1
  // condition: switch 624 is ON
  241(bytes(0x04,0x08,0x6f,0x3a,0x0d,0x52,0x50,0x47,0x3a,0x3a,0x42,0x47,0x4d,0x08,0x3a,0x0a,0x40,0x6e,0x61,0x6d,0x65,0x49,0x22,0x10,0x73,0x63,0x65,0x6e,0x65,0x5f,0x63,0x6f,0x6d,0x69,0x31,0x06,0x3a,0x06,0x45,0x54,0x3a,0x0c,0x40,0x76,0x6f,0x6c,0x75,0x6d,0x65,0x69,0x69,0x3a,0x0b,0x40,0x70,0x69,0x74,0x63,0x68,0x69,0x69))
  ShowMessageFace("gnome_fc1",0,0,2,1)
  ShowMessage("\\n<Gnome>……………………")
  ShowMessageFace("nuruko_fc1",0,0,2,2)
  ShowMessage("\\n<Nuruko>……………………")
  ShowMessageFace("",0,0,2,3)
  ShowMessage("\\n<Visitor>……………………")
  ShowMessageFace("gnome_fc1",0,0,2,4)
  ShowMessage("\\n<Gnome>……………………")
  ShowMessageFace("nuruko_fc1",0,0,2,5)
  ShowMessage("\\n<Nuruko>……………………")
  ShowMessageFace("",0,0,2,6)
  ShowMessage("\\n<Visitor>……………………")
  ShowMessageFace("gnome_fc1",1,0,2,7)
  ShowMessage("\\n<Gnome>……………………")
  ShowMessageFace("nuruko_fc1",2,0,2,8)
  ShowMessage("\\n<Nuruko>……………………")
  ShowMessageFace("",0,0,2,9)
  ShowMessage("\\n<Visitor>……………………")
  ShowMessageFace("",0,0,2,10)
  ShowMessage("ステージは静まり返っている……")
  Wait(30)
  221()
  242(1)
  Wait(60)
  211(1)
  281(1)
  TeleportPlayer(0,624,63,27,6,2)
  ChangeSwitch(2119,2119,0)
  222()
  ShowMessageFace("",0,0,2,11)
  ShowMessage("\\n<Manager>……………………")
  If(2,"A",1)
   ChangeSelfSwitch("A",0)
   250(bytes(0x04,0x08,0x6f,0x3a,0x0c,0x52,0x50,0x47,0x3a,0x3a,0x53,0x45,0x08,0x3a,0x0a,0x40,0x6e,0x61,0x6d,0x65,0x49,0x22,0x0a,0x49,0x74,0x65,0x6d,0x31,0x06,0x3a,0x06,0x45,0x54,0x3a,0x0b,0x40,0x70,0x69,0x74,0x63,0x68,0x69,0x69,0x3a,0x0c,0x40,0x76,0x6f,0x6c,0x75,0x6d,0x65,0x69,0x55))
   ChangeInventoryArmor(1553,0,0,1,false)
   0()
  EndIf()
  ChangeSwitch(2119,2119,1)
  EndEventProcessing()
  0()



EVENT   26
 PAGE   1
  // condition: switch 625 is ON
  241(bytes(0x04,0x08,0x6f,0x3a,0x0d,0x52,0x50,0x47,0x3a,0x3a,0x42,0x47,0x4d,0x08,0x3a,0x0a,0x40,0x6e,0x61,0x6d,0x65,0x49,0x22,0x0a,0x61,0x6d,0x69,0x72,0x61,0x06,0x3a,0x06,0x45,0x54,0x3a,0x0c,0x40,0x76,0x6f,0x6c,0x75,0x6d,0x65,0x69,0x69,0x3a,0x0b,0x40,0x70,0x69,0x74,0x63,0x68,0x69,0x69))
  ShowMessageFace("amira_fc1",0,0,2,1)
  ShowMessage("\\n<Amira>アミラの悩み相談室～♪ 今日の相手は、ちっちゃなヴァンパイアよ。")
  ShowMessageFace("vgirl_fc1",2,0,2,2)
  ShowMessage("\\n<Vanilla>実は我、胸がないのが悩みなのだ…… どうすればいいと思う？")
  ShowMessageFace("amira_fc1",0,0,2,3)
  ShowMessage("\\n<Amira>ちっちぇな……")
  ShowMessageFace("vgirl_fc1",4,0,2,4)
  ShowMessage("\\n<Vanilla>ち、小さいのは分かっているぞ！")
  ShowMessageFace("amira_fc1",0,0,2,5)
  ShowMessage("\\n<Amira>ちっちゃいのは、そのメンタルよ…… その程度で悩みなんて、おこがましいわね。")
  ShowMessageFace("amira_fc1",0,0,2,6)
  ShowMessage("\\n<Amira>持たざる者は幸いだわ。 失うことを恐れずに済むのだから……")
  ShowMessageFace("vgirl_fc1",2,0,2,7)
  ShowMessage("\\n<Vanilla>う、失う事とな……？")
  ShowMessageFace("amira_fc1",0,0,2,8)
  ShowMessage("\\n<Amira>持っている者は、今度は失うことを恐れるようになるものよ。 でも持たざる者は、失うことを恐れる必要はない……")
  ShowMessageFace("amira_fc1",0,0,2,9)
  ShowMessage("\\n<Amira>つまりあなたは、もう恐れる必要はないの。 最初から持っていないんだから、失う恐怖だってないのよ。")
  ShowMessageFace("amira_fc1",0,0,2,10)
  ShowMessage("\\n<Amira>あなたは自由なの…… 失う恐怖に怯えている者よりも、ずっとね……")
  ShowMessageFace("vgirl_fc1",0,0,2,11)
  ShowMessage("\\n<Vanilla>頭にガツンと来たぞ！ 我は恐怖から解放されていたのだな！")
  ShowMessageFace("",0,0,2,12)
  ShowMessage("\\n<Visitor>（言いくるめられた……）")
  ShowMessageFace("vgirl_fc1",0,0,2,13)
  ShowMessage("\\n<Vanilla>もう我は、悩みなどない！ 胸がなくても、失う事はないのだからな！")
  ShowMessageFace("amira_fc1",0,0,2,14)
  ShowMessage("\\n<Amira>えっ、ムネの話だったの……？ カネじゃなくて……？")
  ShowMessageFace("vgirl_fc1",0,0,2,15)
  ShowMessage("\\n<Vanilla>えっ……？")
  ShowMessageFace("amira_fc1",0,0,2,16)
  ShowMessage("\\n<Amira>てっきり、カネがないっていう悩みだと…… ああ、うん……胸ねぇ……")
  ShowMessageFace("amira_fc1",0,0,2,17)
  ShowMessage("\\n<Amira>牛乳飲めば？")
  ShowMessageFace("vgirl_fc1",5,0,2,18)
  ShowMessage("\\n<Vanilla>なにそれー！？")
  ShowMessageFace("amira_fc1",2,0,2,19)
  ShowMessage("\\n<Amira>そういうわけで、アミラのお悩み相談室は終わりよ。 迷える子羊、私の元にいらっしゃい……")
  ShowMessageFace("",0,0,2,20)
  ShowMessage("\\n<Visitor>（色々ひどいな……）")
  ShowMessageFace("",0,0,2,21)
  ShowMessage("ステージは静まり返っている……")
  Wait(30)
  221()
  242(1)
  Wait(60)
  211(1)
  281(1)
  TeleportPlayer(0,624,63,27,6,2)
  ChangeSwitch(2119,2119,0)
  222()
  ShowMessageFace("vgirl_fc1",2,0,2,22)
  ShowMessage("\\n<Vanilla>……………………")
  ShowMessageFace("",0,0,2,23)
  ShowMessage("\\n<Manager>まあ、気を落としちゃダメだよ。 まだまだ人生、これからさ。")
  If(2,"A",1)
   ChangeSelfSwitch("A",0)
   250(bytes(0x04,0x08,0x6f,0x3a,0x0c,0x52,0x50,0x47,0x3a,0x3a,0x53,0x45,0x08,0x3a,0x0a,0x40,0x6e,0x61,0x6d,0x65,0x49,0x22,0x0a,0x49,0x74,0x65,0x6d,0x31,0x06,0x3a,0x06,0x45,0x54,0x3a,0x0b,0x40,0x70,0x69,0x74,0x63,0x68,0x69,0x69,0x3a,0x0c,0x40,0x76,0x6f,0x6c,0x75,0x6d,0x65,0x69,0x55))
   ChangeInventory_Item(342,0,0,5)
   0()
  EndIf()
  ChangeSwitch(2119,2119,1)
  EndEventProcessing()
  0()



EVENT   27
 PAGE   1
  // condition: switch 626 is ON
  241(bytes(0x04,0x08,0x6f,0x3a,0x0d,0x52,0x50,0x47,0x3a,0x3a,0x42,0x47,0x4d,0x08,0x3a,0x0a,0x40,0x6e,0x61,0x6d,0x65,0x49,0x22,0x0b,0x73,0x74,0x61,0x67,0x65,0x31,0x06,0x3a,0x06,0x45,0x54,0x3a,0x0c,0x40,0x76,0x6f,0x6c,0x75,0x6d,0x65,0x69,0x69,0x3a,0x0b,0x40,0x70,0x69,0x74,0x63,0x68,0x69,0x69))
  ShowMessageFace("gob_fc1",5,0,2,1)
  ShowMessage("\\n<Gob>おゆうぎ会だよ！")
  ShowMessageFace("dragonp_fc1",3,0,2,2)
  ShowMessage("\\n<Papi>みんなで歌を歌うのだ！")
  ShowMessageFace("pramia_fc1",3,0,2,3)
  ShowMessage("\\n<Teeny>あたまのお花が、ちぃぱっぱ～♪")
  ShowMessageFace("vgirl_fc1",3,0,2,4)
  ShowMessage("\\n<Vanilla>みんなでおゆうぎ、ちぃぱっぱ～♪")
  ShowMessageFace("phoenix_fc1",1,0,2,5)
  ShowMessage("\\n<Mini>紅蓮の炎が――")
  ShowMessageFace("phoenix_fc1",5,0,2,6)
  ShowMessage("\\n<Mini>……歌を間違えてしまったぞ……")
  ShowMessageFace("",0,0,2,7)
  ShowMessage("\\n<Youth>がんばれー！")
  ShowMessageFace("",0,0,2,8)
  ShowMessage("\\n<Female Customer>かわいい～！")
  ShowMessageFace("",0,0,2,9)
  ShowMessage("ステージは大盛況だ！")
  Wait(30)
  221()
  242(1)
  Wait(60)
  211(1)
  281(1)
  TeleportPlayer(0,624,63,27,6,2)
  ChangeSwitch(2119,2119,0)
  222()
  ShowMessageFace("",0,0,2,10)
  ShowMessage("\\n<Manager>いやぁ、なかなか好評だったよ！ またよろしくね！")
  If(2,"A",1)
   ChangeSelfSwitch("A",0)
   250(bytes(0x04,0x08,0x6f,0x3a,0x0c,0x52,0x50,0x47,0x3a,0x3a,0x53,0x45,0x08,0x3a,0x0a,0x40,0x6e,0x61,0x6d,0x65,0x49,0x22,0x0a,0x49,0x74,0x65,0x6d,0x31,0x06,0x3a,0x06,0x45,0x54,0x3a,0x0b,0x40,0x70,0x69,0x74,0x63,0x68,0x69,0x69,0x3a,0x0c,0x40,0x76,0x6f,0x6c,0x75,0x6d,0x65,0x69,0x55))
   ChangeInventory_Item(373,0,0,1)
   0()
  EndIf()
  ChangeSwitch(2119,2119,1)
  EndEventProcessing()
  0()



EVENT   28
 PAGE   1
  // condition: switch 627 is ON
  241(bytes(0x04,0x08,0x6f,0x3a,0x0d,0x52,0x50,0x47,0x3a,0x3a,0x42,0x47,0x4d,0x08,0x3a,0x0a,0x40,0x6e,0x61,0x6d,0x65,0x49,0x22,0x10,0x73,0x63,0x65,0x6e,0x65,0x5f,0x63,0x6f,0x6d,0x69,0x32,0x06,0x3a,0x06,0x45,0x54,0x3a,0x0c,0x40,0x76,0x6f,0x6c,0x75,0x6d,0x65,0x69,0x69,0x3a,0x0b,0x40,0x70,0x69,0x74,0x63,0x68,0x69,0x69))
  ShowMessageFace("lizardthief_fc1",0,0,2,1)
  ShowMessage("\\n<Liru>腕に自信のある奴、ウロコ盗賊団に入らないか！？")
  ShowMessageFace("lizardthief_fc2",0,0,2,2)
  ShowMessage("\\n<Len>ウロコ盗賊団に、特別な資格は必要ありません。 ただ、腕に覚えがあればいいのですよ……")
  ShowMessageFace("lizardboss_fc1",0,0,2,3)
  ShowMessage("\\n<Miranda>さあ、骨のある野郎ども！ あたしについてきなよ！")
  ShowMessageFace("",0,0,2,4)
  ShowMessage("\\n<Visitor>（ただの勧誘じゃないか……）")
  ShowMessageFace("",0,0,2,5)
  ShowMessage("ステージは微妙な雰囲気だ……")
  Wait(30)
  221()
  242(1)
  Wait(60)
  211(1)
  281(1)
  TeleportPlayer(0,624,63,27,6,2)
  ChangeSwitch(2119,2119,0)
  222()
  ShowMessageFace("",0,0,2,6)
  ShowMessage("\\n<Manager>団員、集まるといいね。 でも、この町は襲わないでおくれよ……")
  If(2,"A",1)
   ChangeSelfSwitch("A",0)
   250(bytes(0x04,0x08,0x6f,0x3a,0x0c,0x52,0x50,0x47,0x3a,0x3a,0x53,0x45,0x08,0x3a,0x0a,0x40,0x6e,0x61,0x6d,0x65,0x49,0x22,0x0a,0x49,0x74,0x65,0x6d,0x31,0x06,0x3a,0x06,0x45,0x54,0x3a,0x0b,0x40,0x70,0x69,0x74,0x63,0x68,0x69,0x69,0x3a,0x0c,0x40,0x76,0x6f,0x6c,0x75,0x6d,0x65,0x69,0x55))
   ChangeInventoryArmor(1700,0,0,1,false)
   0()
  EndIf()
  ChangeSwitch(2119,2119,1)
  EndEventProcessing()
  0()



EVENT   29
 PAGE   1
  // condition: switch 628 is ON
  241(bytes(0x04,0x08,0x6f,0x3a,0x0d,0x52,0x50,0x47,0x3a,0x3a,0x42,0x47,0x4d,0x08,0x3a,0x0a,0x40,0x6e,0x61,0x6d,0x65,0x49,0x22,0x0b,0x73,0x74,0x61,0x67,0x65,0x31,0x06,0x3a,0x06,0x45,0x54,0x3a,0x0c,0x40,0x76,0x6f,0x6c,0x75,0x6d,0x65,0x69,0x69,0x3a,0x0b,0x40,0x70,0x69,0x74,0x63,0x68,0x69,0x69))
  ShowMessageFace("syuree_fc1",1,0,2,1)
  ShowMessage("\\n<Sully>あわあわー♪")
  ShowMessageFace("minikani_fc1",0,0,2,2)
  ShowMessage("\\n<Amy>ぶくぶくー♪")
  ShowMessageFace("kani_fc1",1,0,2,3)
  ShowMessage("\\n<Soapy>あわあわあわー♪")
  ShowMessageFace("",0,0,2,4)
  ShowMessage("\\n<Visitor A>わぁっ、ステージが泡だらけだ！")
  ShowMessageFace("",0,0,2,5)
  ShowMessage("\\n<Visitor B>おいおい、こっちまで流れ込んできたぞ！")
  ShowMessageFace("",0,0,2,6)
  ShowMessage("\\n<Visitor C>でもこの泡……きもちいいよぉぉぉ……♪")
  ShowMessageFace("",0,0,2,7)
  ShowMessage("観客達は恍惚に浸っている！")
  Wait(30)
  221()
  242(1)
  Wait(60)
  211(1)
  281(1)
  TeleportPlayer(0,624,63,27,6,2)
  ChangeSwitch(2119,2119,0)
  222()
  ShowMessageFace("",0,0,2,8)
  ShowMessage("\\n<Manager>あへぇぇぇ…… あわあわ、きもちいいよぉぉ……♪")
  If(2,"A",1)
   ChangeSelfSwitch("A",0)
   250(bytes(0x04,0x08,0x6f,0x3a,0x0c,0x52,0x50,0x47,0x3a,0x3a,0x53,0x45,0x08,0x3a,0x0a,0x40,0x6e,0x61,0x6d,0x65,0x49,0x22,0x0a,0x49,0x74,0x65,0x6d,0x31,0x06,0x3a,0x06,0x45,0x54,0x3a,0x0b,0x40,0x70,0x69,0x74,0x63,0x68,0x69,0x69,0x3a,0x0c,0x40,0x76,0x6f,0x6c,0x75,0x6d,0x65,0x69,0x55))
   ChangeInventoryArmor(1584,0,0,1,false)
   0()
  EndIf()
  ChangeSwitch(2119,2119,1)
  EndEventProcessing()
  0()



EVENT   30
 PAGE   1
  // condition: switch 629 is ON
  241(bytes(0x04,0x08,0x6f,0x3a,0x0d,0x52,0x50,0x47,0x3a,0x3a,0x42,0x47,0x4d,0x08,0x3a,0x0a,0x40,0x6e,0x61,0x6d,0x65,0x49,0x22,0x18,0x64,0x75,0x6e,0x67,0x65,0x6f,0x6e,0x5f,0x6f,0x62,0x61,0x6b,0x65,0x79,0x61,0x73,0x69,0x6b,0x69,0x06,0x3a,0x06,0x45,0x54,0x3a,0x0c,0x40,0x76,0x6f,0x6c,0x75,0x6d,0x65,0x69,0x69,0x3a,0x0b,0x40,0x70,0x69,0x74,0x63,0x68,0x69,0x69))
  ShowMessageFace("jack_fc1",1,0,2,1)
  ShowMessage("\\n<Pumpkin>ハロウィンだよ！ あたし、かぼちゃ！")
  ShowMessageFace("ghost_fc1",0,0,2,2)
  ShowMessage("\\n<Carrie>おばけよ……")
  ShowMessageFace("wormv_fc1",0,0,2,3)
  ShowMessage("\\n<Julia>魔女です、うふふふっ……")
  ShowMessageFace("",0,0,2,4)
  ShowMessage("\\n<Visitor A>やけに本格的だな……")
  ShowMessageFace("jack_fc1",1,0,2,5)
  ShowMessage("\\n<Pumpkin>お菓子くれないと、いたずらするよー♪")
  ShowMessageFace("ghost_fc1",1,0,2,6)
  ShowMessage("\\n<Carrie>お菓子をくれないと、呪い殺してやるわ……")
  ShowMessageFace("wormv_fc1",1,0,2,7)
  ShowMessage("\\n<Julia>お菓子をくれないと、干物になりますよ……")
  ShowMessageFace("",0,0,2,8)
  ShowMessage("\\n<Visitor B>ひぃっ、これヤバいぞ……！")
  ShowMessageFace("",0,0,2,9)
  ShowMessage("ステージは戦慄している……")
  Wait(30)
  221()
  242(1)
  Wait(60)
  211(1)
  281(1)
  TeleportPlayer(0,624,63,27,6,2)
  ChangeSwitch(2119,2119,0)
  222()
  ShowMessageFace("",0,0,2,10)
  ShowMessage("\\n<Manager>今回の公演は、やけに差し入れが多いなぁ……")
  ShowMessageFace("jack_fc1",1,0,2,11)
  ShowMessage("\\n<Pumpkin>大収穫♪")
  If(2,"A",1)
   ChangeSelfSwitch("A",0)
   250(bytes(0x04,0x08,0x6f,0x3a,0x0c,0x52,0x50,0x47,0x3a,0x3a,0x53,0x45,0x08,0x3a,0x0a,0x40,0x6e,0x61,0x6d,0x65,0x49,0x22,0x0a,0x49,0x74,0x65,0x6d,0x31,0x06,0x3a,0x06,0x45,0x54,0x3a,0x0b,0x40,0x70,0x69,0x74,0x63,0x68,0x69,0x69,0x3a,0x0c,0x40,0x76,0x6f,0x6c,0x75,0x6d,0x65,0x69,0x55))
   ChangeInventory_Item(434,0,0,7)
   ChangeInventory_Item(435,0,0,10)
   ChangeInventory_Item(414,0,0,4)
   ChangeInventory_Item(415,0,0,2)
   ChangeInventory_Item(417,0,0,1)
   ChangeInventory_Item(421,0,0,1)
   ChangeInventory_Item(423,0,0,1)
   ChangeInventory_Item(444,0,0,1)
   ChangeInventory_Item(432,0,0,2)
   0()
  EndIf()
  ChangeSwitch(2119,2119,1)
  EndEventProcessing()
  0()



EVENT   31
 PAGE   1
  // condition: switch 630 is ON
  241(bytes(0x04,0x08,0x6f,0x3a,0x0d,0x52,0x50,0x47,0x3a,0x3a,0x42,0x47,0x4d,0x08,0x3a,0x0a,0x40,0x6e,0x61,0x6d,0x65,0x49,0x22,0x0b,0x73,0x74,0x61,0x67,0x65,0x33,0x06,0x3a,0x06,0x45,0x54,0x3a,0x0c,0x40,0x76,0x6f,0x6c,0x75,0x6d,0x65,0x69,0x69,0x3a,0x0b,0x40,0x70,0x69,0x74,0x63,0x68,0x69,0x69))
  ShowMessageFace("zonbe_fc3",0,0,2,1)
  ShowMessage("\\n<Zombie Girl>きんぐ・おぶ・ぞんび……")
  ShowMessageFace("zonbe_fc3",1,0,2,2)
  ShowMessage("\\n<Zombie Girl>すりらぁ……")
  ShowMessageFace("saki_fc1",3,0,2,3)
  ShowMessage("\\n<Saki>ぉぅぃぇ☆")
  ShowMessageFace("",0,0,2,4)
  ShowMessage("\\n<Visitor A>こんなダンス、初めて見るぜ……！")
  ShowMessageFace("",0,0,2,5)
  ShowMessage("\\n<Visitor B>すげぇ！　これは流行るぞ……！！")
  ShowMessageFace("",0,0,2,6)
  ShowMessage("ステージは大盛況だ！")
  Wait(30)
  221()
  242(1)
  Wait(60)
  211(1)
  281(1)
  TeleportPlayer(0,624,63,27,6,2)
  ChangeSwitch(2119,2119,0)
  222()
  ShowMessageFace("",0,0,2,7)
  ShowMessage("\\n<Manager>さすがサキちゃん、新たな境地を切り開いたね！ またよろしくね！")
  ShowMessageFace("saki_fc1",3,0,2,8)
  ShowMessage("\\n<Saki>ぉぅぃぇ☆")
  If(2,"A",1)
   ChangeSelfSwitch("A",0)
   250(bytes(0x04,0x08,0x6f,0x3a,0x0c,0x52,0x50,0x47,0x3a,0x3a,0x53,0x45,0x08,0x3a,0x0a,0x40,0x6e,0x61,0x6d,0x65,0x49,0x22,0x0a,0x49,0x74,0x65,0x6d,0x31,0x06,0x3a,0x06,0x45,0x54,0x3a,0x0b,0x40,0x70,0x69,0x74,0x63,0x68,0x69,0x69,0x3a,0x0c,0x40,0x76,0x6f,0x6c,0x75,0x6d,0x65,0x69,0x55))
   125(0,0,3500)
   ShowMessageFace("",0,0,2,9)
   ShowMessage("公演料として3500Gをもらった！")
   0()
  EndIf()
  ChangeSwitch(2119,2119,1)
  EndEventProcessing()
  0()



EVENT   22
 PAGE   1
  // condition: switch 621 is ON
  0()
 PAGE   2
  // condition: switch 628 is ON
  0()
 PAGE   3
  // condition: switch 627 is ON
  0()



EVENT   32
 PAGE   1
  // condition: switch 622 is ON
  0()
 PAGE   2
  // condition: switch 622 is ON
  // condition: switch 31 is ON
  0()



EVENT   33
 PAGE   1
  // condition: switch 622 is ON
  0()
 PAGE   2
  // condition: switch 626 is ON
  0()
 PAGE   3
  // condition: switch 630 is ON
  0()



EVENT   36
 PAGE   1
  // condition: switch 623 is ON
  0()
 PAGE   2
  // condition: switch 624 is ON
  0()
 PAGE   3
  // condition: switch 629 is ON
  0()



EVENT   35
 PAGE   1
  // condition: switch 623 is ON
  0()
 PAGE   2
  // condition: switch 624 is ON
  0()



EVENT   34
 PAGE   1
  // condition: switch 625 is ON
  0()



EVENT   37
 PAGE   1
  // condition: switch 625 is ON
  0()



EVENT   38
 PAGE   1
  // condition: switch 626 is ON
  0()



EVENT   39
 PAGE   1
  // condition: switch 626 is ON
  0()



EVENT   40
 PAGE   1
  // condition: switch 626 is ON
  0()



EVENT   41
 PAGE   1
  // condition: switch 626 is ON
  0()



EVENT   44
 PAGE   1
  // condition: switch 627 is ON
  0()
 PAGE   2
  // condition: switch 628 is ON
  0()
 PAGE   3
  // condition: switch 629 is ON
  0()



EVENT   45
 PAGE   1
  // condition: switch 627 is ON
  0()
 PAGE   2
  // condition: switch 628 is ON
  0()
 PAGE   3
  // condition: switch 629 is ON
  0()



EVENT   54
 PAGE   1
  // condition: switch 630 is ON
  0()



EVENT   55
 PAGE   1
  // condition: switch 630 is ON
  0()



EVENT   56
 PAGE   1
  // condition: switch 630 is ON
  0()



EVENT   57
 PAGE   1
  // condition: switch 630 is ON
  0()



EVENT   53
 PAGE   1
  // condition: switch 630 is ON
  0()



EVENT   49
 PAGE   1
  // condition: switch 630 is ON
  0()



EVENT   58
 PAGE   1
  // condition: switch 630 is ON
  0()



EVENT   50
 PAGE   1
  // condition: switch 630 is ON
  0()



EVENT   51
 PAGE   1
  // condition: switch 630 is ON
  0()
